EESchema Schematic File Version 4
EELAYER 30 0
EELAYER END
$Descr User 30362 19535
encoding utf-8
Sheet 1 1
Title "24 Rental Expansion Board Alpha"
Date "2020-09-25"
Rev "04"
Comp "The Techno Creatives"
Comment1 "Stefan Norberg"
Comment2 ""
Comment3 ""
Comment4 ""
$EndDescr
$Comp
L TC-Connector:MountingHole_with_conection H1
U 1 1 5F588D43
P 12750 1650
F 0 "H1" H 12850 1696 50  0000 L CNN
F 1 "MountingHole" H 12850 1605 50  0000 L CNN
F 2 "MountingHole:MountingHole_3.2mm_M3_Pad_Via" H 12750 1650 50  0001 C CNN
F 3 "~" H 12750 1650 50  0001 C CNN
	1    12750 1650
	1    0    0    -1  
$EndComp
$Comp
L TC-Connector:MountingHole_with_conection H2
U 1 1 5F593DB3
P 12750 1900
F 0 "H2" H 12850 1946 50  0000 L CNN
F 1 "MountingHole" H 12850 1855 50  0000 L CNN
F 2 "MountingHole:MountingHole_3.2mm_M3_Pad_Via" H 12750 1900 50  0001 C CNN
F 3 "~" H 12750 1900 50  0001 C CNN
	1    12750 1900
	1    0    0    -1  
$EndComp
$Comp
L TC-Connector:MountingHole_with_conection H3
U 1 1 5F59465D
P 12750 2150
F 0 "H3" H 12850 2196 50  0000 L CNN
F 1 "MountingHole" H 12850 2105 50  0000 L CNN
F 2 "MountingHole:MountingHole_3.2mm_M3_Pad_Via" H 12750 2150 50  0001 C CNN
F 3 "~" H 12750 2150 50  0001 C CNN
	1    12750 2150
	1    0    0    -1  
$EndComp
$Comp
L TC-Connector:MountingHole_with_conection H4
U 1 1 5F594663
P 12750 2400
F 0 "H4" H 12850 2446 50  0000 L CNN
F 1 "MountingHole" H 12850 2355 50  0000 L CNN
F 2 "MountingHole:MountingHole_3.2mm_M3_Pad_Via" H 12750 2400 50  0001 C CNN
F 3 "~" H 12750 2400 50  0001 C CNN
	1    12750 2400
	1    0    0    -1  
$EndComp
$Comp
L TC-Connector:MountingHole_with_conection H5
U 1 1 5F597C4A
P 12750 2650
F 0 "H5" H 12850 2696 50  0000 L CNN
F 1 "MountingHole" H 12850 2605 50  0000 L CNN
F 2 "MountingHole:MountingHole_3.2mm_M3_Pad_Via" H 12750 2650 50  0001 C CNN
F 3 "~" H 12750 2650 50  0001 C CNN
	1    12750 2650
	1    0    0    -1  
$EndComp
$Comp
L TC-Connector:MountingHole_with_conection H6
U 1 1 5F597C50
P 12750 2900
F 0 "H6" H 12850 2946 50  0000 L CNN
F 1 "MountingHole" H 12850 2855 50  0000 L CNN
F 2 "MountingHole:MountingHole_3.2mm_M3_Pad_Via" H 12750 2900 50  0001 C CNN
F 3 "~" H 12750 2900 50  0001 C CNN
	1    12750 2900
	1    0    0    -1  
$EndComp
$Comp
L 24rental-motherboard-rescue:PCI-e_mini_V3-TC-Connector U2
U 1 1 5F5AFD37
P 15850 14850
F 0 "U2" H 15875 16103 60  0000 C CNN
F 1 "PCI-e_mini_V3" H 15875 15997 60  0000 C CNN
F 2 "TC-Connector:mPCIE-elevate" H 15875 15891 60  0000 C CNN
F 3 "" H 15950 15300 60  0000 C CNN
	1    15850 14850
	1    0    0    -1  
$EndComp
$Comp
L Device:C C24
U 1 1 5F59E24E
P 8000 2100
F 0 "C24" H 8115 2146 50  0000 L CNN
F 1 "22uF" H 8115 2055 50  0000 L CNN
F 2 "Capacitor_SMD:C_1210_3225Metric" H 8038 1950 50  0001 C CNN
F 3 "~" H 8000 2100 50  0001 C CNN
F 4 "35" H 8000 2100 50  0001 C CNN "V"
	1    8000 2100
	1    0    0    -1  
$EndComp
$Comp
L Device:C C25
U 1 1 5F59E254
P 8500 2100
F 0 "C25" H 8615 2146 50  0000 L CNN
F 1 "1n" H 8615 2055 50  0000 L CNN
F 2 "Capacitor_SMD:C_0402_1005Metric" H 8538 1950 50  0001 C CNN
F 3 "~" H 8500 2100 50  0001 C CNN
F 4 "50" H 8500 2100 50  0001 C CNN "V"
	1    8500 2100
	1    0    0    -1  
$EndComp
$Comp
L Device:C C26
U 1 1 5F59E25A
P 9000 2100
F 0 "C26" H 9115 2146 50  0000 L CNN
F 1 "100p" H 9115 2055 50  0000 L CNN
F 2 "Capacitor_SMD:C_0402_1005Metric" H 9038 1950 50  0001 C CNN
F 3 "~" H 9000 2100 50  0001 C CNN
F 4 "50" H 9000 2100 50  0001 C CNN "V"
	1    9000 2100
	1    0    0    -1  
$EndComp
$Comp
L Device:CP C23
U 1 1 5F5B1C50
P 7550 2100
F 0 "C23" H 7668 2146 50  0000 L CNN
F 1 "100u" H 7668 2055 50  0000 L CNN
F 2 "Capacitor_SMD:CP_Elec_6.3x5.9" H 7588 1950 50  0001 C CNN
F 3 "~" H 7550 2100 50  0001 C CNN
F 4 "35" H 7550 2100 50  0001 C CNN "V"
F 5 "UWT1V101MCL1GS" H 7550 2100 50  0001 C CNN "MPN"
	1    7550 2100
	1    0    0    -1  
$EndComp
$Comp
L Device:CP C27
U 1 1 5F5B6208
P 6250 2350
F 0 "C27" H 6368 2396 50  0000 L CNN
F 1 "330uF/35V" H 6300 2200 50  0000 L CNN
F 2 "Capacitor_SMD:CP_Elec_10x10" H 6288 2200 50  0001 C CNN
F 3 "~" H 6250 2350 50  0001 C CNN
F 4 "UWT1V331MNL1GS" H 6250 2350 50  0001 C CNN "MPN"
	1    6250 2350
	1    0    0    -1  
$EndComp
$Comp
L Device:L L3
U 1 1 5F5B6B83
P 5400 1800
F 0 "L3" V 5590 1800 50  0000 C CNN
F 1 "22uH" V 5499 1800 50  0000 C CNN
F 2 "TC-Inductor:SPM10054" H 5400 1800 50  0001 C CNN
F 3 "https://product.tdk.com/info/en/catalog/datasheets/inductor_automotive_power_spm10054-hz_en.pdf" H 5400 1800 50  0001 C CNN
F 4 "4.4" V 5400 1800 50  0001 C CNN "IDC"
F 5 "0.048" V 5400 1800 50  0001 C CNN "LCR"
F 6 "SPM10054T-220M-HZ" V 5400 1800 50  0001 C CNN "MPN"
	1    5400 1800
	0    -1   -1   0   
$EndComp
$Comp
L Device:L L4
U 1 1 5F5BF305
P 7150 1800
F 0 "L4" V 7340 1800 50  0000 C CNN
F 1 "4.7uH" V 7249 1800 50  0000 C CNN
F 2 "TC-Inductor:SPM6530" H 7150 1800 50  0001 C CNN
F 3 "https://product.tdk.com/info/en/catalog/datasheets/inductor_commercial_power_spm6530_en.pdf" H 7150 1800 50  0001 C CNN
F 4 "SPM6530T-4R7M" V 7150 1800 50  0001 C CNN "MPN"
	1    7150 1800
	0    -1   -1   0   
$EndComp
$Comp
L Device:D_Schottky D4
U 1 1 5F5BFF9F
P 5850 1800
F 0 "D4" H 5850 1583 50  0000 C CNN
F 1 "MBRS540T3G" H 5850 1674 50  0000 C CNN
F 2 "Diode_SMD:D_SMC" H 5850 1800 50  0001 C CNN
F 3 "~" H 5850 1800 50  0001 C CNN
F 4 "MBRS540T3G" H 5850 1800 50  0001 C CNN "MPN"
	1    5850 1800
	-1   0    0    1   
$EndComp
$Comp
L Device:D D5
U 1 1 5F5CAB91
P 6800 2350
F 0 "D5" V 6754 2430 50  0000 L CNN
F 1 "S3G-AU" V 6845 2430 50  0000 L CNN
F 2 "Diode_SMD:D_SMC" H 6800 2350 50  0001 C CNN
F 3 "~" H 6800 2350 50  0001 C CNN
F 4 "S3G-AU" V 6800 2350 50  0001 C CNN "MPN"
	1    6800 2350
	0    1    1    0   
$EndComp
Wire Wire Line
	3000 1950 3000 1800
Wire Wire Line
	3000 1800 3500 1800
Wire Wire Line
	3500 1950 3500 1800
Connection ~ 3500 1800
Wire Wire Line
	3500 1800 4000 1800
Wire Wire Line
	4000 1950 4000 1800
Connection ~ 4000 1800
Wire Wire Line
	4000 1800 4500 1800
Wire Wire Line
	4500 1950 4500 1800
Connection ~ 4500 1800
Wire Wire Line
	4500 1800 5000 1800
Wire Wire Line
	5000 1950 5000 1800
Connection ~ 5000 1800
Wire Wire Line
	5000 1800 5250 1800
Wire Wire Line
	5000 2250 5000 2450
Wire Wire Line
	4500 2450 4500 2250
Wire Wire Line
	4000 2250 4000 2450
Wire Wire Line
	3500 2450 3500 2250
Wire Wire Line
	3000 2250 3000 2450
Wire Wire Line
	3000 3100 3500 3100
Wire Wire Line
	6250 3100 6250 2500
Wire Wire Line
	5000 2750 5000 3100
Connection ~ 5000 3100
Wire Wire Line
	5000 3100 5750 3100
Wire Wire Line
	4500 2750 4500 3100
Connection ~ 4500 3100
Wire Wire Line
	4500 3100 5000 3100
Wire Wire Line
	4000 2750 4000 3100
Connection ~ 4000 3100
Wire Wire Line
	4000 3100 4500 3100
Wire Wire Line
	3500 2750 3500 3100
Connection ~ 3500 3100
Wire Wire Line
	3500 3100 4000 3100
Wire Wire Line
	5550 1800 5700 1800
Wire Wire Line
	6250 2200 6250 1800
Wire Wire Line
	6000 1800 6250 1800
Connection ~ 6250 1800
Wire Wire Line
	6800 2200 6800 1800
Wire Wire Line
	6250 1800 6800 1800
Connection ~ 6800 1800
Wire Wire Line
	6800 1800 7000 1800
Wire Wire Line
	6800 2500 6800 3100
Wire Wire Line
	6800 3100 6250 3100
Connection ~ 6250 3100
Wire Wire Line
	7300 1800 7550 1800
Wire Wire Line
	7550 1800 7550 1950
Wire Wire Line
	7550 1800 8000 1800
Wire Wire Line
	8000 1800 8000 1950
Connection ~ 7550 1800
Wire Wire Line
	8000 1800 8500 1800
Wire Wire Line
	8500 1800 8500 1950
Connection ~ 8000 1800
Wire Wire Line
	8500 1800 9000 1800
Wire Wire Line
	9000 1800 9000 1950
Connection ~ 8500 1800
Wire Wire Line
	8000 2250 8000 2450
Wire Wire Line
	7550 2250 7550 3100
Wire Wire Line
	7550 3100 6800 3100
Connection ~ 6800 3100
Wire Wire Line
	7550 3100 8000 3100
Wire Wire Line
	8000 3100 8000 2750
Connection ~ 7550 3100
Wire Wire Line
	8000 3100 8500 3100
Wire Wire Line
	8500 3100 8500 2250
Connection ~ 8000 3100
Wire Wire Line
	8500 3100 9000 3100
Wire Wire Line
	9000 3100 9000 2250
Connection ~ 8500 3100
$Comp
L Device:C C28
U 1 1 5F592B1B
P 3000 2600
F 0 "C28" H 3115 2646 50  0000 L CNN
F 1 "100nF" H 3115 2555 50  0000 L CNN
F 2 "Capacitor_SMD:C_0603_1608Metric" H 3038 2450 50  0001 C CNN
F 3 "~" H 3000 2600 50  0001 C CNN
F 4 "100V, X7R" H 3000 2600 50  0001 C CNN "Rating"
	1    3000 2600
	1    0    0    -1  
$EndComp
Text Notes 9050 3100 0    50   ~ 0
CP 35V \nMLCC X7R 50V
Connection ~ 3000 1800
Text GLabel 9500 1800 2    50   Output ~ 0
12V_IN
Wire Wire Line
	9500 1800 9150 1800
Connection ~ 9000 1800
$Comp
L Device:C C33
U 1 1 5F601871
P 8000 2600
F 0 "C33" H 8115 2646 50  0000 L CNN
F 1 "22uF" H 8115 2555 50  0000 L CNN
F 2 "Capacitor_SMD:C_1210_3225Metric" H 8038 2450 50  0001 C CNN
F 3 "~" H 8000 2600 50  0001 C CNN
F 4 "35" H 8000 2600 50  0001 C CNN "V"
	1    8000 2600
	1    0    0    -1  
$EndComp
$Comp
L Device:C C18
U 1 1 5F6054A2
P 3000 2100
F 0 "C18" H 3115 2146 50  0000 L CNN
F 1 "100nF" H 3115 2055 50  0000 L CNN
F 2 "Capacitor_SMD:C_0603_1608Metric" H 3038 1950 50  0001 C CNN
F 3 "~" H 3000 2100 50  0001 C CNN
F 4 "100V, X7R" H 3000 2100 50  0001 C CNN "Rating"
	1    3000 2100
	1    0    0    -1  
$EndComp
$Comp
L Device:C C29
U 1 1 5F605996
P 3500 2600
F 0 "C29" H 3615 2646 50  0000 L CNN
F 1 "10nF" H 3615 2555 50  0000 L CNN
F 2 "Capacitor_SMD:C_0603_1608Metric" H 3538 2450 50  0001 C CNN
F 3 "~" H 3500 2600 50  0001 C CNN
F 4 "100V, X7R" H 3500 2600 50  0001 C CNN "Rating"
	1    3500 2600
	1    0    0    -1  
$EndComp
$Comp
L Device:C C19
U 1 1 5F60617A
P 3500 2100
F 0 "C19" H 3615 2146 50  0000 L CNN
F 1 "10nF" H 3615 2055 50  0000 L CNN
F 2 "Capacitor_SMD:C_0603_1608Metric" H 3538 1950 50  0001 C CNN
F 3 "~" H 3500 2100 50  0001 C CNN
F 4 "100V, X7R" H 3500 2100 50  0001 C CNN "Rating"
	1    3500 2100
	1    0    0    -1  
$EndComp
$Comp
L Device:C C30
U 1 1 5F6064B7
P 4000 2600
F 0 "C30" H 4115 2646 50  0000 L CNN
F 1 "470nF" H 4115 2555 50  0000 L CNN
F 2 "Capacitor_SMD:C_0603_1608Metric" H 4038 2450 50  0001 C CNN
F 3 "~" H 4000 2600 50  0001 C CNN
F 4 "100V, X7R" H 4000 2600 50  0001 C CNN "Rating"
	1    4000 2600
	1    0    0    -1  
$EndComp
$Comp
L Device:C C20
U 1 1 5F606921
P 4000 2100
F 0 "C20" H 4115 2146 50  0000 L CNN
F 1 "470nF" H 4115 2055 50  0000 L CNN
F 2 "Capacitor_SMD:C_0603_1608Metric" H 4038 1950 50  0001 C CNN
F 3 "~" H 4000 2100 50  0001 C CNN
F 4 "100V, X7R" H 4000 2100 50  0001 C CNN "Rating"
	1    4000 2100
	1    0    0    -1  
$EndComp
$Comp
L Device:C C31
U 1 1 5F606CAC
P 4500 2600
F 0 "C31" H 4615 2646 50  0000 L CNN
F 1 "100nF" H 4615 2555 50  0000 L CNN
F 2 "Capacitor_SMD:C_0603_1608Metric" H 4538 2450 50  0001 C CNN
F 3 "~" H 4500 2600 50  0001 C CNN
F 4 "100V, X7R" H 4500 2600 50  0001 C CNN "Rating"
	1    4500 2600
	1    0    0    -1  
$EndComp
$Comp
L Device:C C21
U 1 1 5F6071D5
P 4500 2100
F 0 "C21" H 4615 2146 50  0000 L CNN
F 1 "100nF" H 4615 2055 50  0000 L CNN
F 2 "Capacitor_SMD:C_0603_1608Metric" H 4538 1950 50  0001 C CNN
F 3 "~" H 4500 2100 50  0001 C CNN
F 4 "100V, X7R" H 4500 2100 50  0001 C CNN "Rating"
	1    4500 2100
	1    0    0    -1  
$EndComp
$Comp
L Device:C C32
U 1 1 5F607596
P 5000 2600
F 0 "C32" H 5115 2646 50  0000 L CNN
F 1 "10nF" H 5115 2555 50  0000 L CNN
F 2 "Capacitor_SMD:C_0603_1608Metric" H 5038 2450 50  0001 C CNN
F 3 "~" H 5000 2600 50  0001 C CNN
F 4 "100V, X7R" H 5000 2600 50  0001 C CNN "Rating"
	1    5000 2600
	1    0    0    -1  
$EndComp
$Comp
L Device:C C22
U 1 1 5F6079D5
P 5000 2100
F 0 "C22" H 5115 2146 50  0000 L CNN
F 1 "10nF" H 5115 2055 50  0000 L CNN
F 2 "Capacitor_SMD:C_0603_1608Metric" H 5038 1950 50  0001 C CNN
F 3 "~" H 5000 2100 50  0001 C CNN
F 4 "100V, X7R" H 5000 2100 50  0001 C CNN "Rating"
	1    5000 2100
	1    0    0    -1  
$EndComp
Wire Wire Line
	3000 2750 3000 3100
Connection ~ 3000 3100
$Comp
L power:GND #PWR08
U 1 1 5F5D1C60
P 5750 3200
F 0 "#PWR08" H 5750 2950 50  0001 C CNN
F 1 "GND" H 5755 3027 50  0000 C CNN
F 2 "" H 5750 3200 50  0001 C CNN
F 3 "" H 5750 3200 50  0001 C CNN
	1    5750 3200
	1    0    0    -1  
$EndComp
Wire Wire Line
	5750 3200 5750 3100
Connection ~ 5750 3100
Wire Wire Line
	5750 3100 6250 3100
Text Notes 12750 12600 0    90   ~ 0
MCP battery charger
Text Notes 22600 16350 0    100  ~ 0
Charger status LEDS
$Comp
L Battery_Management:MCP73871-2CC U3
U 1 1 5F7DBD6A
P 11650 11150
F 0 "U3" H 11150 12050 50  0000 C CNN
F 1 "MCP73871-1AA" H 12150 10250 50  0000 C CNN
F 2 "Package_DFN_QFN:QFN-20-1EP_4x4mm_P0.5mm_EP2.5x2.5mm_ThermalVias" H 11850 10250 50  0001 L CIN
F 3 "http://www.mouser.com/ds/2/268/22090a-52174.pdf" H 11500 11700 50  0001 C CNN
F 4 "MCP73871-1AA" H 11650 11150 50  0001 C CNN "MPN"
	1    11650 11150
	1    0    0    -1  
$EndComp
$Comp
L Device:R R11
U 1 1 5F7DBD71
P 8900 11350
F 0 "R11" H 8970 11396 50  0000 L CNN
F 1 "2.2K" H 8970 11305 50  0000 L CNN
F 2 "Resistor_SMD:R_0603_1608Metric" V 8830 11350 50  0001 C CNN
F 3 "~" H 8900 11350 50  0001 C CNN
F 4 "RC0603FR-0710KL" H 8900 11350 50  0001 C CNN "MPN"
	1    8900 11350
	1    0    0    -1  
$EndComp
$Comp
L Device:R R12
U 1 1 5F7DBD78
P 9200 11600
F 0 "R12" H 9270 11646 50  0000 L CNN
F 1 "100k" H 9270 11555 50  0000 L CNN
F 2 "Resistor_SMD:R_0603_1608Metric" V 9130 11600 50  0001 C CNN
F 3 "~" H 9200 11600 50  0001 C CNN
F 4 "RMCF0603FT100K" H 9200 11600 50  0001 C CNN "MPN"
	1    9200 11600
	1    0    0    -1  
$EndComp
$Comp
L Device:Thermistor TH1
U 1 1 5F7DBD7F
P 2900 11150
F 0 "TH1" H 3005 11196 50  0000 L CNN
F 1 "NTC 10k" H 3005 11105 50  0000 L CNN
F 2 "Resistor_SMD:R_0603_1608Metric_Pad1.05x0.95mm_HandSolder" H 2900 11150 50  0001 C CNN
F 3 "~" H 2900 11150 50  0001 C CNN
F 4 "NCU18XH103F60RB" H 2900 11150 50  0001 C CNN "MPN"
	1    2900 11150
	1    0    0    -1  
$EndComp
$Comp
L power:GND #PWR010
U 1 1 5F7DBD85
P 11650 12450
F 0 "#PWR010" H 11650 12200 50  0001 C CNN
F 1 "GND" H 11655 12277 50  0000 C CNN
F 2 "" H 11650 12450 50  0001 C CNN
F 3 "" H 11650 12450 50  0001 C CNN
	1    11650 12450
	1    0    0    -1  
$EndComp
Wire Wire Line
	11650 12450 11650 12200
Wire Wire Line
	10950 11550 10400 11550
Connection ~ 11650 12200
Wire Wire Line
	11650 12200 11650 12050
Wire Wire Line
	8900 12200 9200 12200
Wire Wire Line
	10950 11150 9200 11150
Wire Wire Line
	9200 11150 9200 11450
Connection ~ 9200 12200
Wire Wire Line
	8900 11200 8900 10950
Wire Wire Line
	8900 10950 10950 10950
Wire Wire Line
	8900 11500 8900 12200
Wire Wire Line
	9200 11750 9200 12200
$Comp
L Device:C C36
U 1 1 5F7DBDA0
P 13250 11400
F 0 "C36" H 13365 11446 50  0000 L CNN
F 1 "10uF" H 13365 11355 50  0000 L CNN
F 2 "Capacitor_SMD:C_0603_1608Metric" H 13288 11250 50  0001 C CNN
F 3 "~" H 13250 11400 50  0001 C CNN
F 4 "MuRata" H 13250 11400 50  0001 C CNN "MF"
F 5 "C1608X5R1A106M080AC" H 13250 11400 50  0001 C CNN "MPN"
F 6 "10V" H 13250 11400 50  0001 C CNN "VDC"
	1    13250 11400
	1    0    0    -1  
$EndComp
Text Label 12400 11350 0    50   ~ 0
PG_LED
Wire Wire Line
	12350 11350 12400 11350
Text Label 12400 11550 0    50   ~ 0
LBO_LED
Wire Wire Line
	12350 11550 12400 11550
NoConn ~ 12350 11650
$Comp
L Device:LED D9
U 1 1 5F7DBDAD
P 23150 15250
F 0 "D9" H 23143 14995 50  0000 C CNN
F 1 "PG_LED" H 23143 15086 50  0000 C CNN
F 2 "LED_SMD:LED_0603_1608Metric" H 23150 15250 50  0001 C CNN
F 3 "~" H 23150 15250 50  0001 C CNN
F 4 "Innolux" H 23150 15250 50  0001 C CNN "MF"
F 5 "IN-S63AT5G" H 23150 15250 50  0001 C CNN "MPN"
	1    23150 15250
	-1   0    0    1   
$EndComp
$Comp
L Device:LED D10
U 1 1 5F7DBDB5
P 23150 15800
F 0 "D10" H 23143 15545 50  0000 C CNN
F 1 "LBO_LED" H 23143 15636 50  0000 C CNN
F 2 "LED_SMD:LED_0603_1608Metric" H 23150 15800 50  0001 C CNN
F 3 "~" H 23150 15800 50  0001 C CNN
F 4 "Innolux" H 23150 15800 50  0001 C CNN "MF"
F 5 "IN-S63AT5G" H 23150 15800 50  0001 C CNN "MPN"
	1    23150 15800
	-1   0    0    1   
$EndComp
$Comp
L Jumper:SolderJumper_3_Open JP2
U 1 1 5F7DBDBC
P 8600 10750
F 0 "JP2" V 8646 10817 50  0000 L CNN
F 1 "SEL" V 8555 10817 50  0000 L CNN
F 2 "Jumper:SolderJumper-3_P1.3mm_Bridged12_RoundedPad1.0x1.5mm" H 8600 10750 50  0001 C CNN
F 3 "~" H 8600 10750 50  0001 C CNN
F 4 "-" H 8600 10750 50  0001 C CNN "MPN"
	1    8600 10750
	0    -1   1    0   
$EndComp
Wire Wire Line
	8600 10950 8600 12200
Wire Wire Line
	8600 12200 8900 12200
Connection ~ 8900 12200
Wire Wire Line
	8600 10550 8600 10350
Wire Wire Line
	13250 12200 13250 11550
Wire Wire Line
	13250 10550 13250 11250
Wire Wire Line
	12350 11050 12500 11050
Wire Wire Line
	12500 11050 12500 10850
Wire Wire Line
	10700 10100 10850 10100
Wire Wire Line
	11650 10100 11650 10250
Wire Wire Line
	10950 10550 10850 10550
Wire Wire Line
	10850 10550 10850 10100
$Comp
L Device:C C37
U 1 1 5F7DBDD3
P 13900 11400
F 0 "C37" H 14015 11446 50  0000 L CNN
F 1 "10uF" H 14015 11355 50  0000 L CNN
F 2 "Capacitor_SMD:C_0603_1608Metric" H 13938 11250 50  0001 C CNN
F 3 "~" H 13900 11400 50  0001 C CNN
F 4 "MuRata" H 13900 11400 50  0001 C CNN "MF"
F 5 "C1608X5R1A106M080AC" H 13900 11400 50  0001 C CNN "MPN"
F 6 "10V" H 13900 11400 50  0001 C CNN "VDC"
	1    13900 11400
	1    0    0    -1  
$EndComp
Wire Wire Line
	13900 10100 13900 11250
Wire Wire Line
	13900 11550 13900 12200
Wire Wire Line
	13900 12200 13250 12200
Connection ~ 13250 12200
Wire Wire Line
	8450 10350 8600 10350
Wire Wire Line
	9850 11750 10100 11750
Text Label 23500 15250 0    50   ~ 0
PG_LED
$Comp
L Device:R R7
U 1 1 5F7DBDE5
P 22650 15250
F 0 "R7" V 22800 15250 50  0000 C CNN
F 1 "200" V 22534 15250 50  0000 C CNN
F 2 "Resistor_SMD:R_0603_1608Metric" V 22580 15250 50  0001 C CNN
F 3 "~" H 22650 15250 50  0001 C CNN
F 4 "" H 22650 15250 50  0001 C CNN "MPN"
	1    22650 15250
	0    -1   -1   0   
$EndComp
$Comp
L Jumper:SolderJumper_2_Open JP1
U 1 1 5F7DBDF5
P 21350 15450
F 0 "JP1" H 21350 15655 50  0000 C CNN
F 1 "Status_leds" H 21350 15564 50  0000 C CNN
F 2 "Jumper:SolderJumper-2_P1.3mm_Open_RoundedPad1.0x1.5mm" H 21350 15450 50  0001 C CNN
F 3 "~" H 21350 15450 50  0001 C CNN
F 4 "-" H 21350 15450 50  0001 C CNN "MPN"
	1    21350 15450
	1    0    0    -1  
$EndComp
Wire Wire Line
	21500 15450 21750 15450
Wire Wire Line
	21750 15800 21750 15450
Connection ~ 21750 15450
Wire Wire Line
	10800 11050 10950 11050
$Comp
L Device:R R10
U 1 1 5F7DBE05
P 3700 11150
F 0 "R10" H 3770 11196 50  0000 L CNN
F 1 "620k" H 3770 11105 50  0000 L CNN
F 2 "Resistor_SMD:R_0603_1608Metric" V 3630 11150 50  0001 C CNN
F 3 "~" H 3700 11150 50  0001 C CNN
F 4 "" H 3700 11150 50  0001 C CNN "MPN"
	1    3700 11150
	-1   0    0    -1  
$EndComp
$Comp
L power:GND #PWR06
U 1 1 5F7DBE0B
P 3700 12050
F 0 "#PWR06" H 3700 11800 50  0001 C CNN
F 1 "GND" H 3705 11877 50  0000 C CNN
F 2 "" H 3700 12050 50  0001 C CNN
F 3 "" H 3700 12050 50  0001 C CNN
	1    3700 12050
	-1   0    0    -1  
$EndComp
Wire Wire Line
	3700 10000 3700 10150
$Comp
L Device:C C35
U 1 1 5F7DBE19
P 12850 11400
F 0 "C35" H 12965 11446 50  0000 L CNN
F 1 "10uF" H 12965 11355 50  0000 L CNN
F 2 "Capacitor_SMD:C_0603_1608Metric" H 12888 11250 50  0001 C CNN
F 3 "~" H 12850 11400 50  0001 C CNN
F 4 "MuRata" H 12850 11400 50  0001 C CNN "MF"
F 5 "C1608X5R1A106M080AC" H 12850 11400 50  0001 C CNN "MPN"
F 6 "10V" H 12850 11400 50  0001 C CNN "VDC"
	1    12850 11400
	1    0    0    -1  
$EndComp
Wire Wire Line
	11650 12200 12850 12200
Wire Wire Line
	12500 10850 12850 10850
Wire Wire Line
	12350 10850 12500 10850
Connection ~ 12500 10850
Wire Wire Line
	12350 10550 13250 10550
Wire Wire Line
	13250 10550 13450 10550
Connection ~ 13250 10550
Text Notes 16560 12283 0    100  ~ 0
Battery and battery level
Wire Notes Line
	29748 6648 29749 6648
Text Notes 8184 16336 0    100  ~ 0
Humidity and pressure sensor
Text Notes 3050 16300 0    100  ~ 0
Digital output motion sensor
Text Notes 27239 4328 0    100  ~ 0
Net and Status light
Text Label 26700 3350 0    50   ~ 0
NETLIGHT
Text Label 27950 3350 0    50   ~ 0
STATUSLIGHT
$Comp
L power:GND #PWR039
U 1 1 5F7DBF33
P 27550 3750
F 0 "#PWR039" H 27550 3500 50  0001 C CNN
F 1 "GND" H 27555 3577 50  0000 C CNN
F 2 "" H 27550 3750 50  0001 C CNN
F 3 "" H 27550 3750 50  0001 C CNN
	1    27550 3750
	1    0    0    -1  
$EndComp
Wire Wire Line
	27550 2000 27550 2200
Wire Wire Line
	27550 2500 27550 2700
Wire Wire Line
	28850 2500 28850 2700
Wire Wire Line
	27550 3000 27550 3150
Wire Wire Line
	27150 3350 26700 3350
Wire Wire Line
	28850 3000 28850 3150
Wire Wire Line
	28450 3350 27950 3350
$Comp
L power:GND #PWR01
U 1 1 5F7DBF4B
P 1700 15700
F 0 "#PWR01" H 1700 15450 50  0001 C CNN
F 1 "GND" H 1705 15527 50  0000 C CNN
F 2 "" H 1700 15700 50  0001 C CNN
F 3 "" H 1700 15700 50  0001 C CNN
	1    1700 15700
	1    0    0    -1  
$EndComp
Text GLabel 1500 14450 0    50   Input ~ 0
1V8_LDO
Wire Wire Line
	1700 14750 1450 14750
Wire Wire Line
	1700 15050 1450 15050
$Comp
L Sensor:BME280 U5
U 1 1 5F7DBF55
P 7500 15300
F 0 "U5" H 7071 15346 50  0000 R CNN
F 1 "BME280" H 7071 15255 50  0000 R CNN
F 2 "Package_LGA:Bosch_LGA-8_2.5x2.5mm_P0.65mm_ClockwisePinNumbering" H 9000 14850 50  0001 C CNN
F 3 "https://ae-bst.resource.bosch.com/media/_tech/media/datasheets/BST-BME280-DS002.pdf" H 7500 15100 50  0001 C CNN
F 4 "BME280" H 7500 15300 50  0001 C CNN "MPN"
	1    7500 15300
	1    0    0    -1  
$EndComp
$Comp
L power:GND #PWR03
U 1 1 5F7DBF5B
P 7600 16050
F 0 "#PWR03" H 7600 15800 50  0001 C CNN
F 1 "GND" H 7605 15877 50  0000 C CNN
F 2 "" H 7600 16050 50  0001 C CNN
F 3 "" H 7600 16050 50  0001 C CNN
	1    7600 16050
	1    0    0    -1  
$EndComp
$Comp
L power:GND #PWR05
U 1 1 5F7DBF61
P 8250 15000
F 0 "#PWR05" H 8250 14750 50  0001 C CNN
F 1 "GND" V 8255 14872 50  0000 R CNN
F 2 "" H 8250 15000 50  0001 C CNN
F 3 "" H 8250 15000 50  0001 C CNN
	1    8250 15000
	0    -1   -1   0   
$EndComp
$Comp
L Device:C C39
U 1 1 5F7DBF69
P 8200 14550
F 0 "C39" H 8323 14566 50  0000 L CNN
F 1 "100nF" H 8283 14469 50  0000 L CNN
F 2 "Capacitor_SMD:C_0603_1608Metric" H 8238 14400 50  0001 C CNN
F 3 "~" H 8200 14550 50  0001 C CNN
F 4 "Kemet" H 8200 14550 50  0001 C CNN "MF"
F 5 "C0603C103J3GACTU" H 8200 14550 50  0001 C CNN "MPN"
	1    8200 14550
	1    0    0    -1  
$EndComp
$Comp
L Device:C C38
U 1 1 5F7DBF71
P 7950 14550
F 0 "C38" H 7744 14567 50  0000 L CNN
F 1 "100nF" H 7669 14468 50  0000 L CNN
F 2 "Capacitor_SMD:C_0603_1608Metric" H 7988 14400 50  0001 C CNN
F 3 "~" H 7950 14550 50  0001 C CNN
F 4 "Kemet" H 7950 14550 50  0001 C CNN "MF"
F 5 "C0603C103J3GACTU" H 7950 14550 50  0001 C CNN "MPN"
	1    7950 14550
	1    0    0    -1  
$EndComp
Wire Wire Line
	7950 14400 7600 14400
Wire Wire Line
	7600 14400 7600 14700
Wire Wire Line
	8200 14400 7950 14400
Connection ~ 8200 14400
Connection ~ 7950 14400
Wire Wire Line
	7600 14400 7400 14400
Wire Wire Line
	7400 14400 7400 14700
Connection ~ 7600 14400
Wire Wire Line
	7950 14700 8100 14700
Wire Wire Line
	8250 15000 8100 15000
Wire Wire Line
	8100 15000 8100 14700
Connection ~ 8100 15000
Connection ~ 8100 14700
Wire Wire Line
	8100 14700 8200 14700
Wire Wire Line
	8100 15600 8850 15600
Wire Wire Line
	7400 15900 7600 15900
Wire Wire Line
	7600 15900 7600 16050
Connection ~ 7600 15900
Wire Wire Line
	3300 14850 3450 14850
Wire Wire Line
	3450 14850 3450 14750
Wire Wire Line
	3450 14750 3300 14750
Text GLabel 7150 14400 0    50   Input ~ 0
1V8_LDO
$Comp
L Device:C C41
U 1 1 5F7DBFD5
P 4850 15300
F 0 "C41" H 4750 15450 50  0000 C CNN
F 1 "10uF" H 4700 15150 50  0000 C CNN
F 2 "Capacitor_SMD:C_0603_1608Metric" H 4888 15150 50  0001 C CNN
F 3 "~" H 4850 15300 50  0001 C CNN
F 4 "MuRata" H 4850 15300 50  0001 C CNN "MF"
F 5 "C1608X5R1A106M080AC" H 4850 15300 50  0001 C CNN "MPN"
F 6 "10V" H 4850 15300 50  0001 C CNN "VDC"
	1    4850 15300
	1    0    0    -1  
$EndComp
Wire Wire Line
	10850 10100 11650 10100
Connection ~ 10850 10100
Connection ~ 11650 10100
Wire Wire Line
	1700 15700 1700 15600
$Comp
L Device:C C40
U 1 1 5F7DBFE1
P 4400 15300
F 0 "C40" H 4300 15450 50  0000 C CNN
F 1 "100nF" H 4250 15150 50  0000 C CNN
F 2 "Capacitor_SMD:C_0603_1608Metric" H 4438 15150 50  0001 C CNN
F 3 "~" H 4400 15300 50  0001 C CNN
F 4 "Kemet" H 4400 15300 50  0001 C CNN "MF"
F 5 "C0603C103J3GACTU" H 4400 15300 50  0001 C CNN "MPN"
	1    4400 15300
	1    0    0    -1  
$EndComp
Wire Wire Line
	4850 14750 4850 15150
Wire Wire Line
	4400 15150 4400 14750
Wire Wire Line
	4400 14750 4850 14750
Wire Wire Line
	4850 15450 4850 15600
Wire Wire Line
	4850 15600 4400 15600
Wire Wire Line
	4400 15600 4400 15450
Connection ~ 1700 15600
Wire Wire Line
	1700 15600 2550 15600
Connection ~ 4400 15600
$Comp
L Device:Q_NPN_BEC_BRT Q2
U 1 1 5F7DBFF9
P 28800 3350
F 0 "Q2" H 28941 3396 50  0000 L CNN
F 1 "Q_NPN_BEC_BRT" H 28941 3305 50  0000 L CNN
F 2 "Package_TO_SOT_SMD:SOT-23" H 28800 3350 50  0001 C CNN
F 3 "~" H 28800 3350 50  0001 C CNN
F 4 "Nexperia" H 28800 3350 50  0001 C CNN "MF"
F 5 "PDTC143ZT,215" H 28800 3350 50  0001 C CNN "MPN"
	1    28800 3350
	1    0    0    -1  
$EndComp
$Comp
L Device:Q_NPN_BEC_BRT Q1
U 1 1 5F7DC001
P 27500 3350
F 0 "Q1" H 27641 3396 50  0000 L CNN
F 1 "Q_NPN_BEC_BRT" H 27641 3305 50  0000 L CNN
F 2 "Package_TO_SOT_SMD:SOT-23" H 27500 3350 50  0001 C CNN
F 3 "~" H 27500 3350 50  0001 C CNN
F 4 "Nexperia" H 27500 3350 50  0001 C CNN "MF"
F 5 "PDTC143ZT,215" H 27500 3350 50  0001 C CNN "MPN"
	1    27500 3350
	1    0    0    -1  
$EndComp
Text Notes 15300 17300 0    100  ~ 0
MPCIE Connector
NoConn ~ 1700 14950
Text GLabel 1500 14850 0    50   Input ~ 0
1V8_LDO
Wire Wire Line
	1500 14850 1700 14850
Text Notes 1600 16100 0    50   ~ 0
I2C adress:  0011000
Text Notes 6450 16050 0    50   ~ 0
I2C adress: 1110110
Wire Wire Line
	1700 15150 1700 15600
Wire Wire Line
	3450 14750 4400 14750
Connection ~ 3450 14750
Connection ~ 4400 14750
Wire Wire Line
	2550 15600 2550 15550
Connection ~ 2550 15600
Wire Wire Line
	2550 15600 4400 15600
Wire Wire Line
	8200 14400 8850 14400
Wire Wire Line
	8100 15200 8250 15200
Wire Wire Line
	8400 15400 8200 15400
Text Label 1450 14750 0    50   ~ 0
SCL
Text Label 1450 15050 0    50   ~ 0
SDA
Text Label 8400 15400 0    50   ~ 0
SDA
Text Label 8400 15200 0    50   ~ 0
SCL
Wire Wire Line
	15200 14550 15100 14550
Wire Wire Line
	15200 14650 15100 14650
Wire Wire Line
	15200 14050 15100 14050
$Comp
L power:GND #PWR011
U 1 1 5F7DC106
P 15100 13950
F 0 "#PWR011" H 15100 13700 50  0001 C CNN
F 1 "GND" V 15105 13822 50  0000 R CNN
F 2 "" H 15100 13950 50  0001 C CNN
F 3 "" H 15100 13950 50  0001 C CNN
	1    15100 13950
	0    1    1    0   
$EndComp
$Comp
L power:GND #PWR012
U 1 1 5F7DC110
P 15100 14050
F 0 "#PWR012" H 15100 13800 50  0001 C CNN
F 1 "GND" V 15105 13922 50  0000 R CNN
F 2 "" H 15100 14050 50  0001 C CNN
F 3 "" H 15100 14050 50  0001 C CNN
	1    15100 14050
	0    1    1    0   
$EndComp
$Comp
L power:GND #PWR013
U 1 1 5F7DC116
P 15100 14550
F 0 "#PWR013" H 15100 14300 50  0001 C CNN
F 1 "GND" V 15105 14422 50  0000 R CNN
F 2 "" H 15100 14550 50  0001 C CNN
F 3 "" H 15100 14550 50  0001 C CNN
	1    15100 14550
	0    1    1    0   
$EndComp
$Comp
L power:GND #PWR014
U 1 1 5F7DC11C
P 15100 14650
F 0 "#PWR014" H 15100 14400 50  0001 C CNN
F 1 "GND" V 15105 14522 50  0000 R CNN
F 2 "" H 15100 14650 50  0001 C CNN
F 3 "" H 15100 14650 50  0001 C CNN
	1    15100 14650
	0    1    1    0   
$EndComp
$Comp
L power:GND #PWR015
U 1 1 5F7DC122
P 15100 14850
F 0 "#PWR015" H 15100 14600 50  0001 C CNN
F 1 "GND" V 15105 14722 50  0000 R CNN
F 2 "" H 15100 14850 50  0001 C CNN
F 3 "" H 15100 14850 50  0001 C CNN
	1    15100 14850
	0    1    1    0   
$EndComp
Wire Wire Line
	15100 14850 15200 14850
Wire Wire Line
	16550 13950 16650 13950
$Comp
L power:GND #PWR021
U 1 1 5F7DC12A
P 16650 13950
F 0 "#PWR021" H 16650 13700 50  0001 C CNN
F 1 "GND" V 16655 13822 50  0000 R CNN
F 2 "" H 16650 13950 50  0001 C CNN
F 3 "" H 16650 13950 50  0001 C CNN
	1    16650 13950
	0    -1   -1   0   
$EndComp
$Comp
L power:GND #PWR027
U 1 1 5F7DC130
P 16650 16550
F 0 "#PWR027" H 16650 16300 50  0001 C CNN
F 1 "GND" V 16655 16422 50  0000 R CNN
F 2 "" H 16650 16550 50  0001 C CNN
F 3 "" H 16650 16550 50  0001 C CNN
	1    16650 16550
	0    -1   -1   0   
$EndComp
Wire Wire Line
	16550 15550 16650 15550
$Comp
L power:GND #PWR025
U 1 1 5F7DC13E
P 16650 15550
F 0 "#PWR025" H 16650 15300 50  0001 C CNN
F 1 "GND" V 16655 15422 50  0000 R CNN
F 2 "" H 16650 15550 50  0001 C CNN
F 3 "" H 16650 15550 50  0001 C CNN
	1    16650 15550
	0    -1   -1   0   
$EndComp
Wire Wire Line
	16550 15250 16650 15250
$Comp
L power:GND #PWR024
U 1 1 5F7DC145
P 16650 15250
F 0 "#PWR024" H 16650 15000 50  0001 C CNN
F 1 "GND" V 16655 15122 50  0000 R CNN
F 2 "" H 16650 15250 50  0001 C CNN
F 3 "" H 16650 15250 50  0001 C CNN
	1    16650 15250
	0    -1   -1   0   
$EndComp
Text Label 17300 14050 2    50   ~ 0
STATUSLIGHT
Text Label 17300 14150 2    50   ~ 0
NETLIGHT
Wire Wire Line
	16550 14050 17300 14050
Wire Wire Line
	16550 14150 17300 14150
Text Label 17300 14250 2    50   ~ 0
PWRKEY
Wire Wire Line
	16550 14250 17300 14250
Text Label 17300 15750 2    50   ~ 0
SCL2
Text Label 17300 15650 2    50   ~ 0
SDA2
Text Label 17300 15450 2    50   ~ 0
SCL
Text Label 17300 15350 2    50   ~ 0
SDA
Wire Wire Line
	16550 15350 17300 15350
Wire Wire Line
	16550 15450 17300 15450
$Comp
L power:GND #PWR023
U 1 1 5F7DC15E
P 16650 14850
F 0 "#PWR023" H 16650 14600 50  0001 C CNN
F 1 "GND" V 16655 14722 50  0000 R CNN
F 2 "" H 16650 14850 50  0001 C CNN
F 3 "" H 16650 14850 50  0001 C CNN
	1    16650 14850
	0    -1   -1   0   
$EndComp
Wire Wire Line
	16550 14850 16650 14850
$Comp
L power:GND #PWR022
U 1 1 5F7DC165
P 16650 14650
F 0 "#PWR022" H 16650 14400 50  0001 C CNN
F 1 "GND" V 16655 14522 50  0000 R CNN
F 2 "" H 16650 14650 50  0001 C CNN
F 3 "" H 16650 14650 50  0001 C CNN
	1    16650 14650
	0    -1   -1   0   
$EndComp
Wire Wire Line
	16550 14650 16650 14650
Wire Wire Line
	15200 15250 14400 15250
Wire Wire Line
	15200 15350 14400 15350
Wire Wire Line
	15200 15550 14400 15550
Wire Wire Line
	15200 15650 14400 15650
Wire Wire Line
	15200 15750 14400 15750
Wire Wire Line
	15200 15850 14400 15850
Text Label 14400 15250 0    50   ~ 0
P0.25
Text Label 14400 15750 0    50   ~ 0
BATT_LVL_READ
Text Label 14400 15850 0    50   ~ 0
P0.31_AIN7
Wire Wire Line
	16550 16550 16650 16550
$Comp
L power:GND #PWR016
U 1 1 5F7DC183
P 15100 16150
F 0 "#PWR016" H 15100 15900 50  0001 C CNN
F 1 "GND" V 15105 16022 50  0000 R CNN
F 2 "" H 15100 16150 50  0001 C CNN
F 3 "" H 15100 16150 50  0001 C CNN
	1    15100 16150
	0    1    1    0   
$EndComp
Wire Wire Line
	15100 16150 15200 16150
Wire Wire Line
	17300 16050 16550 16050
Wire Wire Line
	16550 15950 17300 15950
Text Label 17300 15950 2    50   ~ 0
P0.00
$Comp
L power:GND #PWR026
U 1 1 5F7DC192
P 16650 15850
F 0 "#PWR026" H 16650 15600 50  0001 C CNN
F 1 "GND" V 16655 15722 50  0000 R CNN
F 2 "" H 16650 15850 50  0001 C CNN
F 3 "" H 16650 15850 50  0001 C CNN
	1    16650 15850
	0    -1   -1   0   
$EndComp
Wire Wire Line
	16550 15850 16650 15850
Wire Wire Line
	16550 14550 17300 14550
Wire Wire Line
	15100 13950 15150 13950
$Comp
L power:PWR_FLAG #FLG01
U 1 1 5F7DC19D
P 15150 13950
F 0 "#FLG01" H 15150 14025 50  0001 C CNN
F 1 "PWR_FLAG" H 15150 14123 50  0000 C CNN
F 2 "" H 15150 13950 50  0001 C CNN
F 3 "~" H 15150 13950 50  0001 C CNN
	1    15150 13950
	1    0    0    -1  
$EndComp
Connection ~ 15150 13950
Wire Wire Line
	15150 13950 15200 13950
Text Label 17300 16450 2    50   ~ 0
P0.05_AIN3
Text Label 17300 16350 2    50   ~ 0
P0.04_AIN2
Text Label 17300 16250 2    50   ~ 0
P0.03_AIN1
Text Label 17300 16150 2    50   ~ 0
P0.02_AIN0
Text Label 17300 16050 2    50   ~ 0
P0.01
Wire Wire Line
	16550 16150 17300 16150
Wire Wire Line
	17300 16250 16550 16250
Wire Wire Line
	16550 16350 17300 16350
Wire Wire Line
	17300 16450 16550 16450
Text GLabel 14750 16050 0    50   Output ~ 0
1V8_LDO
Wire Wire Line
	14750 16050 15200 16050
Wire Wire Line
	12850 10850 12850 11250
Wire Wire Line
	12850 11550 12850 12200
Connection ~ 12850 12200
Wire Wire Line
	12850 12200 13250 12200
Text GLabel 14350 15450 0    50   Input ~ 0
VBAT
$Comp
L Jumper:SolderJumper_3_Open JP3
U 1 1 5F7DC371
P 10100 12000
F 0 "JP3" V 10146 12067 50  0000 L CNN
F 1 "SEL" V 10055 12067 50  0000 L CNN
F 2 "Jumper:SolderJumper-3_P1.3mm_Bridged12_RoundedPad1.0x1.5mm_NumberLabels" H 10100 12000 50  0001 C CNN
F 3 "~" H 10100 12000 50  0001 C CNN
F 4 "-" H 10100 12000 50  0001 C CNN "MPN"
	1    10100 12000
	0    -1   1    0   
$EndComp
Wire Wire Line
	11650 12200 10100 12200
Connection ~ 10100 12200
Wire Wire Line
	10250 12000 10400 12000
Wire Wire Line
	10400 12000 10400 11550
Wire Wire Line
	10100 11800 10100 11750
Wire Wire Line
	8750 10750 10950 10750
Wire Wire Line
	8850 15600 8850 14400
$Comp
L Device:R R8
U 1 1 5F7DC42B
P 3700 10300
F 0 "R8" H 3770 10346 50  0000 L CNN
F 1 "820k" H 3770 10255 50  0000 L CNN
F 2 "Resistor_SMD:R_0603_1608Metric" V 3630 10300 50  0001 C CNN
F 3 "~" H 3700 10300 50  0001 C CNN
F 4 "" H 3700 10300 50  0001 C CNN "MPN"
	1    3700 10300
	-1   0    0    -1  
$EndComp
Text GLabel 10700 10100 0    50   Input ~ 0
5V0_SW
Text Label 2800 17200 0    50   ~ 0
SCL
Text Label 2800 17000 0    50   ~ 0
SDA
Text GLabel 1750 16500 0    50   Input ~ 0
1V8_LDO
$Comp
L Device:R R17
U 1 1 6005E261
P 2250 16750
F 0 "R17" H 2116 16817 50  0000 L CNN
F 1 "4k7" H 2058 16732 50  0000 L CNN
F 2 "Resistor_SMD:R_0603_1608Metric" V 2180 16750 50  0001 C CNN
F 3 "~" H 2250 16750 50  0001 C CNN
F 4 "RC0603FR-074K7L" H 2250 16750 50  0001 C CNN "MPN"
	1    2250 16750
	1    0    0    -1  
$EndComp
Wire Wire Line
	1750 16500 2000 16500
Wire Wire Line
	2250 16500 2250 16600
Wire Wire Line
	2250 16900 2250 17200
Wire Wire Line
	2250 17200 2800 17200
$Comp
L Device:R R18
U 1 1 6010F442
P 2550 16750
F 0 "R18" H 2416 16817 50  0000 L CNN
F 1 "4k7" H 2358 16732 50  0000 L CNN
F 2 "Resistor_SMD:R_0603_1608Metric" V 2480 16750 50  0001 C CNN
F 3 "~" H 2550 16750 50  0001 C CNN
F 4 "RC0603FR-074K7L" H 2550 16750 50  0001 C CNN "MPN"
	1    2550 16750
	1    0    0    -1  
$EndComp
Wire Wire Line
	2250 16500 2550 16500
Wire Wire Line
	2550 16500 2550 16600
Connection ~ 2250 16500
Wire Wire Line
	2550 16900 2550 17000
Wire Wire Line
	2550 17000 2800 17000
$Comp
L Device:R R4
U 1 1 601A4F30
P 21500 2800
F 0 "R4" H 21366 2867 50  0000 L CNN
F 1 "200" H 21308 2782 50  0000 L CNN
F 2 "Resistor_SMD:R_0603_1608Metric" V 21430 2800 50  0001 C CNN
F 3 "~" H 21500 2800 50  0001 C CNN
F 4 "" H 21500 2800 50  0001 C CNN "MPN"
	1    21500 2800
	1    0    0    -1  
$EndComp
Wire Wire Line
	21500 2950 21500 3100
Wire Wire Line
	21100 3300 20900 3300
$Comp
L Device:Q_NPN_BEC_BRT Q3
U 1 1 601A4F48
P 21450 3300
F 0 "Q3" H 21591 3346 50  0000 L CNN
F 1 "Q_NPN_BEC_BRT" H 21591 3255 50  0000 L CNN
F 2 "Package_TO_SOT_SMD:SOT-23" H 21450 3300 50  0001 C CNN
F 3 "~" H 21450 3300 50  0001 C CNN
F 4 "Nexperia" H 21450 3300 50  0001 C CNN "MF"
F 5 "PDTC143ZT,215" H 21450 3300 50  0001 C CNN "MPN"
	1    21450 3300
	1    0    0    -1  
$EndComp
Text GLabel 21350 1950 0    50   Input ~ 0
3V3_LDO
$Comp
L power:GND #PWR030
U 1 1 601F0345
P 21500 3650
F 0 "#PWR030" H 21500 3400 50  0001 C CNN
F 1 "GND" H 21505 3477 50  0000 C CNN
F 2 "" H 21500 3650 50  0001 C CNN
F 3 "" H 21500 3650 50  0001 C CNN
	1    21500 3650
	1    0    0    -1  
$EndComp
Wire Wire Line
	21500 3500 21500 3650
Wire Wire Line
	23350 2950 23350 3100
Wire Wire Line
	22950 3300 22750 3300
$Comp
L Device:Q_NPN_BEC_BRT Q4
U 1 1 6023CAFD
P 23300 3300
F 0 "Q4" H 23441 3346 50  0000 L CNN
F 1 "Q_NPN_BEC_BRT" H 23441 3255 50  0000 L CNN
F 2 "Package_TO_SOT_SMD:SOT-23" H 23300 3300 50  0001 C CNN
F 3 "~" H 23300 3300 50  0001 C CNN
F 4 "Nexperia" H 23300 3300 50  0001 C CNN "MF"
F 5 "PDTC143ZT,215" H 23300 3300 50  0001 C CNN "MPN"
	1    23300 3300
	1    0    0    -1  
$EndComp
Text GLabel 23200 1950 0    50   Input ~ 0
3V3_LDO
$Comp
L power:GND #PWR034
U 1 1 6023CB04
P 23350 3650
F 0 "#PWR034" H 23350 3400 50  0001 C CNN
F 1 "GND" H 23355 3477 50  0000 C CNN
F 2 "" H 23350 3650 50  0001 C CNN
F 3 "" H 23350 3650 50  0001 C CNN
	1    23350 3650
	1    0    0    -1  
$EndComp
Wire Wire Line
	23350 3500 23350 3650
Wire Wire Line
	25100 3000 25100 3150
$Comp
L Device:Q_NPN_BEC_BRT Q5
U 1 1 602642C4
P 25050 3350
F 0 "Q5" H 25191 3396 50  0000 L CNN
F 1 "Q_NPN_BEC_BRT" H 25191 3305 50  0000 L CNN
F 2 "Package_TO_SOT_SMD:SOT-23" H 25050 3350 50  0001 C CNN
F 3 "~" H 25050 3350 50  0001 C CNN
F 4 "Nexperia" H 25050 3350 50  0001 C CNN "MF"
F 5 "PDTC143ZT,215" H 25050 3350 50  0001 C CNN "MPN"
	1    25050 3350
	1    0    0    -1  
$EndComp
Text GLabel 24950 2000 0    50   Input ~ 0
3V3_LDO
$Comp
L power:GND #PWR035
U 1 1 602642CB
P 25100 3700
F 0 "#PWR035" H 25100 3450 50  0001 C CNN
F 1 "GND" H 25105 3527 50  0000 C CNN
F 2 "" H 25100 3700 50  0001 C CNN
F 3 "" H 25100 3700 50  0001 C CNN
	1    25100 3700
	1    0    0    -1  
$EndComp
Wire Wire Line
	25100 3550 25100 3700
Text Notes 20900 4300 0    100  ~ 0
Operator interface
NoConn ~ 15200 16250
NoConn ~ 15200 16350
NoConn ~ 15200 16450
Wire Wire Line
	14350 15450 15200 15450
Text GLabel 14350 15150 0    50   Input ~ 0
VBAT
Wire Wire Line
	14350 15150 15200 15150
Text GLabel 13450 10550 2    50   Output ~ 0
Vmain
Text GLabel 10800 11050 0    50   Input ~ 0
Vmain
Text GLabel 8450 10350 0    50   Input ~ 0
Vmain
$Comp
L Connector:Conn_01x03_Male J3
U 1 1 6040D9C2
P 1850 10100
F 0 "J3" H 1958 10381 50  0000 C CNN
F 1 "Battery" H 1958 10290 50  0000 C CNN
F 2 "Connector_PinHeader_2.54mm:PinHeader_1x03_P2.54mm_Vertical" H 1850 10100 50  0001 C CNN
F 3 "~" H 1850 10100 50  0001 C CNN
F 4 "-" H 1850 10100 50  0001 C CNN "MPN"
	1    1850 10100
	1    0    0    -1  
$EndComp
$Comp
L Jumper:SolderJumper_3_Open JP4
U 1 1 604AB2F9
P 2900 10650
F 0 "JP4" V 2946 10717 50  0000 L CNN
F 1 "SEL" V 2855 10717 50  0000 L CNN
F 2 "Jumper:SolderJumper-3_P1.3mm_Bridged12_RoundedPad1.0x1.5mm_NumberLabels" H 2900 10650 50  0001 C CNN
F 3 "~" H 2900 10650 50  0001 C CNN
F 4 "-" H 2900 10650 50  0001 C CNN "MPN"
	1    2900 10650
	0    -1   -1   0   
$EndComp
Wire Wire Line
	9200 12200 10100 12200
$Comp
L power:GND #PWR04
U 1 1 604FB141
P 2900 12050
F 0 "#PWR04" H 2900 11800 50  0001 C CNN
F 1 "GND" H 2905 11877 50  0000 C CNN
F 2 "" H 2900 12050 50  0001 C CNN
F 3 "" H 2900 12050 50  0001 C CNN
	1    2900 12050
	1    0    0    -1  
$EndComp
Wire Wire Line
	2900 10850 2900 10900
Text Label 3250 10650 0    50   ~ 0
THERM
Text Label 10750 11350 2    50   ~ 0
THERM
Wire Wire Line
	10750 11350 10950 11350
$Comp
L power:GND #PWR02
U 1 1 60843550
P 2450 10350
F 0 "#PWR02" H 2450 10100 50  0001 C CNN
F 1 "GND" H 2455 10177 50  0000 C CNN
F 2 "" H 2450 10350 50  0001 C CNN
F 3 "" H 2450 10350 50  0001 C CNN
	1    2450 10350
	1    0    0    -1  
$EndComp
Wire Wire Line
	2450 10200 2450 10350
Wire Wire Line
	2050 10200 2450 10200
Text Label 2300 10100 0    50   ~ 0
BAT_TEMP
Wire Wire Line
	2900 10100 2900 10450
Wire Wire Line
	2050 10100 2900 10100
Wire Wire Line
	2050 10000 3700 10000
Connection ~ 3700 10000
Text Notes 1800 12450 0    90   ~ 0
Battery connector and temp sens
Text Label 20900 3300 2    50   ~ 0
P0.00
Text Label 24600 3350 2    50   ~ 0
P0.02_AIN0
Text Label 22750 3300 2    50   ~ 0
P0.01
Wire Wire Line
	24600 3350 24700 3350
Text Notes 3050 17650 0    100  ~ 0
I2C pull up
Text GLabel 5000 10000 2    50   Output ~ 0
VBAT
Text GLabel 12950 10850 2    50   Output ~ 0
VBAT
Wire Wire Line
	12850 10850 12950 10850
Connection ~ 12850 10850
Wire Wire Line
	27550 3550 27550 3750
$Comp
L power:GND #PWR042
U 1 1 6115355A
P 28850 3700
F 0 "#PWR042" H 28850 3450 50  0001 C CNN
F 1 "GND" H 28855 3527 50  0000 C CNN
F 2 "" H 28850 3700 50  0001 C CNN
F 3 "" H 28850 3700 50  0001 C CNN
	1    28850 3700
	1    0    0    -1  
$EndComp
Wire Wire Line
	28850 3550 28850 3700
Wire Wire Line
	28850 2000 28850 2200
$Comp
L Device:C C34
U 1 1 5F6208EA
P 16650 11050
F 0 "C34" H 16765 11096 50  0000 L CNN
F 1 "10uF" H 16765 11005 50  0000 L CNN
F 2 "Capacitor_SMD:C_0603_1608Metric" H 16688 10900 50  0001 C CNN
F 3 "~" H 16650 11050 50  0001 C CNN
F 4 "C1608X5R1A106M080AC" H 16650 11050 50  0001 C CNN "MPN"
F 5 "MuRata" H 16650 11050 50  0001 C CNN "MF"
F 6 "10V" H 16650 11050 50  0001 C CNN "VDC"
F 7 "0Ohm" H 16650 11050 50  0001 C CNN "ESR"
	1    16650 11050
	1    0    0    -1  
$EndComp
Text GLabel 16500 10600 0    50   Input ~ 0
Vmain
$Comp
L power:GND #PWR029
U 1 1 5F6208F1
P 17700 11650
F 0 "#PWR029" H 17700 11400 50  0001 C CNN
F 1 "GND" H 17705 11477 50  0000 C CNN
F 2 "" H 17700 11650 50  0001 C CNN
F 3 "" H 17700 11650 50  0001 C CNN
	1    17700 11650
	1    0    0    -1  
$EndComp
Wire Wire Line
	16650 10600 17350 10600
Connection ~ 16650 10600
Wire Wire Line
	16650 11550 17350 11550
Connection ~ 17350 11550
Wire Wire Line
	17350 11550 17700 11550
Wire Wire Line
	17700 11250 17700 11550
Connection ~ 17700 11550
Wire Wire Line
	18650 11550 18350 11550
Connection ~ 18350 11550
Wire Wire Line
	18350 11550 17700 11550
Wire Wire Line
	17350 11050 17350 11550
NoConn ~ 18050 11050
Wire Wire Line
	17700 11550 17700 11650
Wire Wire Line
	16650 10900 16650 10600
Wire Wire Line
	16650 11200 16650 11550
Wire Wire Line
	18650 11300 18650 11550
Wire Wire Line
	18350 11500 18350 11550
Wire Wire Line
	18200 10800 18200 11150
Wire Wire Line
	18200 10800 18050 10800
Wire Wire Line
	18350 10600 18650 10600
Connection ~ 18350 10600
Wire Wire Line
	18350 10750 18350 10600
Connection ~ 18650 10600
Wire Wire Line
	18050 10600 18350 10600
Wire Wire Line
	18650 10600 18800 10600
Wire Wire Line
	18650 11000 18650 10600
Wire Wire Line
	18350 11150 18350 11200
Connection ~ 18350 11150
Wire Wire Line
	18200 11150 18350 11150
Wire Wire Line
	18350 11050 18350 11150
$Comp
L Device:C C42
U 1 1 5F62091A
P 18650 11150
F 0 "C42" H 18765 11196 50  0000 L CNN
F 1 "10uF" H 18765 11105 50  0000 L CNN
F 2 "Capacitor_SMD:C_0603_1608Metric" H 18688 11000 50  0001 C CNN
F 3 "~" H 18650 11150 50  0001 C CNN
F 4 "C1608X5R1A106M080AC" H 18650 11150 50  0001 C CNN "MPN"
F 5 "MuRata" H 18650 11150 50  0001 C CNN "MF"
F 6 "10V" H 18650 11150 50  0001 C CNN "VDC"
F 7 "0Ohm" H 18650 11150 50  0001 C CNN "ESR"
	1    18650 11150
	1    0    0    -1  
$EndComp
Text GLabel 18800 10600 2    50   Output ~ 0
3V3_LDO
$Comp
L Device:R R16
U 1 1 5F620922
P 18350 11350
F 0 "R16" H 18420 11396 50  0000 L CNN
F 1 "33.3k" H 18050 11300 50  0000 L CNN
F 2 "Resistor_SMD:R_0603_1608Metric" V 18280 11350 50  0001 C CNN
F 3 "~" H 18350 11350 50  0001 C CNN
F 4 "RMCF0603FT33K3" H 18350 11350 50  0001 C CNN "MPN"
	1    18350 11350
	1    0    0    -1  
$EndComp
$Comp
L Device:R R15
U 1 1 5F620929
P 18350 10900
F 0 "R15" H 18420 10946 50  0000 L CNN
F 1 "56.2k" H 18100 11100 50  0000 L CNN
F 2 "Resistor_SMD:R_0603_1608Metric" V 18280 10900 50  0001 C CNN
F 3 "~" H 18350 10900 50  0001 C CNN
F 4 "RMCF0603FT56K2" H 18350 10900 50  0001 C CNN "MPN"
	1    18350 10900
	1    0    0    -1  
$EndComp
$Comp
L 24rental-motherboard-rescue:TPS73701-TC-Power U6
U 1 1 5F620931
P 17700 10800
F 0 "U6" H 17700 11365 50  0000 C CNN
F 1 "TPS73701_WSON" H 17700 11274 50  0000 C CNN
F 2 "Package_SON:WSON-6-1EP_2x2mm_P0.65mm_EP1x1.6mm_ThermalVias" H 18300 11300 50  0001 C CNN
F 3 "http://www.ti.com/lit/ds/symlink/tps737.pdf" H 17750 11050 50  0001 C CNN
F 4 "Ti" H 17700 10800 50  0001 C CNN "MF"
F 5 "TPS73701DRVR" H 17700 10800 50  0001 C CNN "MPN"
	1    17700 10800
	1    0    0    -1  
$EndComp
Text Notes 18250 11800 0    50   ~ 0
Vb=1.204V\n
Wire Wire Line
	16500 10600 16650 10600
Text Label 17150 10800 2    50   ~ 0
PWR_EN
Wire Wire Line
	17150 10800 17250 10800
Text Label 14400 15350 0    50   ~ 0
PWR_EN
Text Notes 7100 3400 0    100  ~ 0
Transient input protection 100V to -40V
Text Notes 6900 2750 0    50   ~ 0
Limit max \nvoltage \nwith D5
Wire Wire Line
	7150 14400 7400 14400
Connection ~ 7400 14400
$Comp
L Device:R R5
U 1 1 5FADCD7D
P 23350 2800
F 0 "R5" H 23216 2867 50  0000 L CNN
F 1 "200" H 23158 2782 50  0000 L CNN
F 2 "Resistor_SMD:R_0603_1608Metric" V 23280 2800 50  0001 C CNN
F 3 "~" H 23350 2800 50  0001 C CNN
F 4 "" H 23350 2800 50  0001 C CNN "MPN"
	1    23350 2800
	1    0    0    -1  
$EndComp
$Comp
L Device:R R13
U 1 1 5FADD365
P 27550 2850
F 0 "R13" H 27416 2917 50  0000 L CNN
F 1 "200" H 27358 2832 50  0000 L CNN
F 2 "Resistor_SMD:R_0603_1608Metric" V 27480 2850 50  0001 C CNN
F 3 "~" H 27550 2850 50  0001 C CNN
F 4 "" H 27550 2850 50  0001 C CNN "MPN"
	1    27550 2850
	1    0    0    -1  
$EndComp
$Comp
L Device:R R14
U 1 1 5FADD77C
P 28850 2850
F 0 "R14" H 28716 2917 50  0000 L CNN
F 1 "200" H 28658 2832 50  0000 L CNN
F 2 "Resistor_SMD:R_0603_1608Metric" V 28780 2850 50  0001 C CNN
F 3 "~" H 28850 2850 50  0001 C CNN
F 4 "" H 28850 2850 50  0001 C CNN "MPN"
	1    28850 2850
	1    0    0    -1  
$EndComp
$Comp
L Device:R R6
U 1 1 5FADD042
P 25100 2850
F 0 "R6" H 24966 2917 50  0000 L CNN
F 1 "200" H 24908 2832 50  0000 L CNN
F 2 "Resistor_SMD:R_0603_1608Metric" V 25030 2850 50  0001 C CNN
F 3 "~" H 25100 2850 50  0001 C CNN
F 4 "" H 25100 2850 50  0001 C CNN "MPN"
	1    25100 2850
	1    0    0    -1  
$EndComp
NoConn ~ 15200 14150
NoConn ~ 15200 14250
NoConn ~ 15200 14350
NoConn ~ 15200 14450
Wire Wire Line
	24400 8300 23850 8300
$Comp
L Device:Q_NPN_BEC_BRT Q7
U 1 1 5FEFFC12
P 24750 8300
F 0 "Q7" H 24891 8346 50  0000 L CNN
F 1 "Q_NPN_BEC_BRT" H 24891 8255 50  0000 L CNN
F 2 "Package_TO_SOT_SMD:SOT-23" H 24750 8300 50  0001 C CNN
F 3 "~" H 24750 8300 50  0001 C CNN
F 4 "Nexperia" H 24750 8300 50  0001 C CNN "MF"
F 5 "PDTC143ZT,215" H 24750 8300 50  0001 C CNN "MPN"
	1    24750 8300
	1    0    0    -1  
$EndComp
$Comp
L power:GND #PWR036
U 1 1 5FEFFC18
P 24800 8650
F 0 "#PWR036" H 24800 8400 50  0001 C CNN
F 1 "GND" H 24805 8477 50  0000 C CNN
F 2 "" H 24800 8650 50  0001 C CNN
F 3 "" H 24800 8650 50  0001 C CNN
	1    24800 8650
	1    0    0    -1  
$EndComp
Wire Wire Line
	24800 8500 24800 8650
Text GLabel 23500 7100 0    50   Input ~ 0
3V3_LDO
Wire Wire Line
	28650 8300 27850 8300
$Comp
L power:GND #PWR040
U 1 1 6007E63F
P 29050 8650
F 0 "#PWR040" H 29050 8400 50  0001 C CNN
F 1 "GND" H 29055 8477 50  0000 C CNN
F 2 "" H 29050 8650 50  0001 C CNN
F 3 "" H 29050 8650 50  0001 C CNN
	1    29050 8650
	1    0    0    -1  
$EndComp
Wire Wire Line
	29050 8500 29050 8650
Text GLabel 27400 7100 0    50   Input ~ 0
3V3_LDO
$Comp
L Device:Q_NPN_BEC_BRT Q6
U 1 1 600AA061
P 21850 8300
F 0 "Q6" H 21991 8346 50  0000 L CNN
F 1 "Q_NPN_BEC_BRT" H 21991 8255 50  0000 L CNN
F 2 "Package_TO_SOT_SMD:SOT-23" H 21850 8300 50  0001 C CNN
F 3 "~" H 21850 8300 50  0001 C CNN
F 4 "Nexperia" H 21850 8300 50  0001 C CNN "MF"
F 5 "PDTC143ZT,215" H 21850 8300 50  0001 C CNN "MPN"
	1    21850 8300
	1    0    0    -1  
$EndComp
$Comp
L power:GND #PWR031
U 1 1 600AA067
P 21900 8650
F 0 "#PWR031" H 21900 8400 50  0001 C CNN
F 1 "GND" H 21905 8477 50  0000 C CNN
F 2 "" H 21900 8650 50  0001 C CNN
F 3 "" H 21900 8650 50  0001 C CNN
	1    21900 8650
	1    0    0    -1  
$EndComp
Wire Wire Line
	21900 8500 21900 8650
Text GLabel 20800 7100 0    50   Input ~ 0
3V3_LDO
Text Label 23150 8300 0    50   ~ 0
P0.04_AIN2
Text Label 27050 8300 0    50   ~ 0
P0.05_AIN3
$Comp
L Device:Q_NPN_BEC_BRT Q8
U 1 1 6007E639
P 29000 8300
F 0 "Q8" H 29141 8346 50  0000 L CNN
F 1 "Q_NPN_BEC_BRT" H 29141 8255 50  0000 L CNN
F 2 "Package_TO_SOT_SMD:SOT-23" H 29000 8300 50  0001 C CNN
F 3 "~" H 29000 8300 50  0001 C CNN
F 4 "Nexperia" H 29000 8300 50  0001 C CNN "MF"
F 5 "PDTC143ZT,215" H 29000 8300 50  0001 C CNN "MPN"
	1    29000 8300
	1    0    0    -1  
$EndComp
Text GLabel 9850 11750 0    50   Input ~ 0
5V0_SW
Wire Wire Line
	20950 15450 21200 15450
Wire Wire Line
	11650 10100 13900 10100
$Comp
L Connector:TestPoint TP4
U 1 1 5F72D8B1
P 18650 10450
F 0 "TP4" H 18708 10568 50  0000 L CNN
F 1 "TestPoint" H 18708 10477 50  0000 L CNN
F 2 "TestPoint:TestPoint_Pad_D2.0mm" H 18850 10450 50  0001 C CNN
F 3 "~" H 18850 10450 50  0001 C CNN
	1    18650 10450
	1    0    0    -1  
$EndComp
Wire Wire Line
	18650 10450 18650 10600
$Comp
L Connector:TestPoint TP1
U 1 1 5F7E3180
P 9150 1650
F 0 "TP1" H 9208 1768 50  0000 L CNN
F 1 "TestPoint" H 9208 1677 50  0000 L CNN
F 2 "TestPoint:TestPoint_Pad_D2.0mm" H 9350 1650 50  0001 C CNN
F 3 "~" H 9350 1650 50  0001 C CNN
	1    9150 1650
	1    0    0    -1  
$EndComp
Wire Wire Line
	9150 1650 9150 1800
Connection ~ 9150 1800
Wire Wire Line
	9150 1800 9000 1800
$Comp
L Connector:TestPoint TP6
U 1 1 5F8F4A6F
P 10850 9900
F 0 "TP6" H 10908 10018 50  0000 L CNN
F 1 "TestPoint" H 10908 9927 50  0000 L CNN
F 2 "TestPoint:TestPoint_Pad_D2.0mm" H 11050 9900 50  0001 C CNN
F 3 "~" H 11050 9900 50  0001 C CNN
	1    10850 9900
	1    0    0    -1  
$EndComp
Wire Wire Line
	10850 9900 10850 10100
Text Label 14400 15650 0    50   ~ 0
PG_LED
Text Label 14400 15550 0    50   ~ 0
LBO_LED
Text Notes 23500 16500 0    50   ~ 0
Active LOW
Text Label 10650 11750 2    50   ~ 0
CHARGE_EN
Wire Wire Line
	10650 11750 10800 11750
Text Label 17300 14550 2    50   ~ 0
CHARGE_EN
Wire Wire Line
	22800 15250 23000 15250
Wire Wire Line
	21750 15800 22500 15800
Text Label 23500 15800 0    50   ~ 0
LBO_LED
$Comp
L Device:R R9
U 1 1 5F7DBDEE
P 22650 15800
F 0 "R9" V 22500 15800 50  0000 C CNN
F 1 "200" V 22800 15800 50  0000 C CNN
F 2 "Resistor_SMD:R_0603_1608Metric" V 22580 15800 50  0001 C CNN
F 3 "~" H 22650 15800 50  0001 C CNN
F 4 "" H 22650 15800 50  0001 C CNN "MPN"
	1    22650 15800
	0    1    1    0   
$EndComp
Text GLabel 20950 15450 0    50   Input ~ 0
1V8_LDO
Wire Wire Line
	23500 15250 23300 15250
Wire Wire Line
	23300 15800 23500 15800
Wire Wire Line
	21750 15450 21750 15250
Wire Wire Line
	21750 15250 22500 15250
$Comp
L Device:LED D8
U 1 1 5F7DBF25
P 28850 2350
F 0 "D8" H 28843 2095 50  0000 C CNN
F 1 "PG_LED" H 28843 2186 50  0000 C CNN
F 2 "LED_SMD:LED_0603_1608Metric" H 28850 2350 50  0001 C CNN
F 3 "~" H 28850 2350 50  0001 C CNN
F 4 "Innolux" H 28850 2350 50  0001 C CNN "MF"
F 5 "IN-S63AT5G" H 28850 2350 50  0001 C CNN "MPN"
	1    28850 2350
	0    -1   -1   0   
$EndComp
$Comp
L Device:LED D7
U 1 1 5F7DBF2D
P 27550 2350
F 0 "D7" H 27543 2095 50  0000 C CNN
F 1 "PG_LED" H 27543 2186 50  0000 C CNN
F 2 "LED_SMD:LED_0603_1608Metric" H 27550 2350 50  0001 C CNN
F 3 "~" H 27550 2350 50  0001 C CNN
F 4 "Innolux" H 27550 2350 50  0001 C CNN "MF"
F 5 "IN-S63AT5G" H 27550 2350 50  0001 C CNN "MPN"
	1    27550 2350
	0    -1   -1   0   
$EndComp
$Comp
L Connector:Conn_01x03_Male J2
U 1 1 605BD33F
P 22450 11050
F 0 "J2" H 22558 11331 50  0000 C CNN
F 1 "1V8IO" H 22558 11240 50  0000 C CNN
F 2 "Connector_PinHeader_1.27mm:PinHeader_1x03_P1.27mm_Vertical" H 22450 11050 50  0001 C CNN
F 3 "~" H 22450 11050 50  0001 C CNN
F 4 "-" H 22450 11050 50  0001 C CNN "MPN"
	1    22450 11050
	-1   0    0    -1  
$EndComp
Wire Wire Line
	22150 11150 22150 11300
Wire Wire Line
	22250 11150 22150 11150
$Comp
L power:GND #PWR033
U 1 1 605BEDF5
P 22150 11300
F 0 "#PWR033" H 22150 11050 50  0001 C CNN
F 1 "GND" H 22155 11127 50  0000 C CNN
F 2 "" H 22150 11300 50  0001 C CNN
F 3 "" H 22150 11300 50  0001 C CNN
	1    22150 11300
	-1   0    0    -1  
$EndComp
Text GLabel 21500 11050 0    50   Input ~ 0
1V8_LDO
$Comp
L Device:R R22
U 1 1 60644450
P 21900 11050
F 0 "R22" V 21800 10900 50  0000 C CNN
F 1 "4k7" V 21784 11050 50  0000 C CNN
F 2 "Resistor_SMD:R_0603_1608Metric" V 21830 11050 50  0001 C CNN
F 3 "~" H 21900 11050 50  0001 C CNN
F 4 "" H 21900 11050 50  0001 C CNN "MPN"
	1    21900 11050
	0    1    -1   0   
$EndComp
Wire Wire Line
	22250 11050 22050 11050
Wire Wire Line
	21750 11050 21500 11050
Text Label 22050 10950 2    50   ~ 0
P0.31_AIN7
Wire Wire Line
	22250 10950 22050 10950
Text Notes 21400 13350 0    50   ~ 0
Lid switch or something
Wire Wire Line
	2900 11350 2900 11450
$Comp
L Device:R R23
U 1 1 607EBF05
P 2550 11150
F 0 "R23" H 2620 11196 50  0000 L CNN
F 1 "150k" H 2620 11105 50  0000 L CNN
F 2 "Resistor_SMD:R_0603_1608Metric_Pad1.05x0.95mm_HandSolder" V 2480 11150 50  0001 C CNN
F 3 "~" H 2550 11150 50  0001 C CNN
F 4 "" H 2550 11150 50  0001 C CNN "MPN"
	1    2550 11150
	-1   0    0    -1  
$EndComp
Wire Wire Line
	2550 11000 2550 10900
Wire Wire Line
	2550 10900 2900 10900
Connection ~ 2900 10900
Wire Wire Line
	2900 10900 2900 10950
Wire Wire Line
	2550 11300 2550 11450
Wire Wire Line
	2550 11450 2900 11450
Connection ~ 2900 11450
Wire Wire Line
	2900 11450 2900 11650
$Comp
L Device:R R24
U 1 1 60876C0A
P 2900 11800
F 0 "R24" H 2970 11846 50  0000 L CNN
F 1 "1k" H 2970 11755 50  0000 L CNN
F 2 "Resistor_SMD:R_0603_1608Metric" V 2830 11800 50  0001 C CNN
F 3 "~" H 2900 11800 50  0001 C CNN
F 4 "" H 2900 11800 50  0001 C CNN "MPN"
	1    2900 11800
	-1   0    0    -1  
$EndComp
Wire Wire Line
	2900 11950 2900 12050
NoConn ~ 15200 14950
NoConn ~ 15200 15050
NoConn ~ 16550 14950
NoConn ~ 16550 15050
NoConn ~ 16550 15150
Text Notes 17300 14550 0    50   ~ 0
P0.12 on the SoM
Text Notes 20300 9400 0    100  ~ 0
Transitor controlled outputs
Text Notes 1600 11400 0    50   ~ 0
R23 and R24\nresistor values \nset for 0C to +50C
Wire Notes Line
	20150 6350 29350 6350
Wire Notes Line
	6600 9600 6600 12900
Wire Notes Line
	15800 9600 15800 12900
$Comp
L Device:Q_NMOS_GSD Q9
U 1 1 5F8867C9
P 25750 11050
F 0 "Q9" H 25954 11096 50  0000 L CNN
F 1 "Q_NMOS_GSD" H 25954 11005 50  0000 L CNN
F 2 "Package_TO_SOT_SMD:SOT-23" H 25950 11150 50  0001 C CNN
F 3 "~" H 25750 11050 50  0001 C CNN
F 4 "SSM3K339R" H 25750 11050 50  0001 C CNN "MPN"
	1    25750 11050
	1    0    0    -1  
$EndComp
$Comp
L Device:R R19
U 1 1 5F887333
P 25200 11050
F 0 "R19" V 25050 11050 50  0000 C CNN
F 1 "0" V 25350 11050 50  0000 C CNN
F 2 "Resistor_SMD:R_0603_1608Metric" V 25130 11050 50  0001 C CNN
F 3 "~" H 25200 11050 50  0001 C CNN
F 4 "" H 25200 11050 50  0001 C CNN "MPN"
	1    25200 11050
	0    1    1    0   
$EndComp
Wire Wire Line
	25350 11050 25550 11050
Text Label 24350 11050 0    50   ~ 0
P0.05_AIN3
Wire Wire Line
	24350 11050 25050 11050
$Comp
L Device:R R20
U 1 1 5F946B75
P 25850 10400
F 0 "R20" V 25700 10400 50  0000 C CNN
F 1 "4k7" V 26000 10400 50  0000 C CNN
F 2 "Resistor_SMD:R_0603_1608Metric" V 25780 10400 50  0001 C CNN
F 3 "~" H 25850 10400 50  0001 C CNN
F 4 "" H 25850 10400 50  0001 C CNN "MPN"
	1    25850 10400
	-1   0    0    1   
$EndComp
Wire Wire Line
	27650 10000 27000 10000
Wire Wire Line
	25850 10000 25850 10250
Wire Wire Line
	25850 10550 25850 10700
$Comp
L power:GND #PWR038
U 1 1 5F9D6C0D
P 25850 12900
F 0 "#PWR038" H 25850 12650 50  0001 C CNN
F 1 "GND" V 25855 12772 50  0000 R CNN
F 2 "" H 25850 12900 50  0001 C CNN
F 3 "" H 25850 12900 50  0001 C CNN
	1    25850 12900
	1    0    0    -1  
$EndComp
Wire Wire Line
	26700 10700 25850 10700
Connection ~ 25850 10700
Wire Wire Line
	25850 10700 25850 10850
Wire Wire Line
	27000 10500 27000 10000
Connection ~ 27000 10000
Wire Wire Line
	27000 10000 25850 10000
Wire Wire Line
	27000 10900 27000 11400
Wire Wire Line
	25850 11250 25850 11500
$Comp
L 24rental-motherboard:B0512s J7
U 1 1 5F900CE0
P 27550 11500
F 0 "J7" H 27937 11392 50  0000 L CNN
F 1 "B0512s" H 27937 11301 50  0000 L CNN
F 2 "TC-Header:PinHeader_B0312S" H 27550 11500 50  0001 C CNN
F 3 "" H 27550 11500 50  0001 C CNN
	1    27550 11500
	1    0    0    -1  
$EndComp
Wire Wire Line
	27400 11400 27000 11400
Wire Wire Line
	27400 11500 25850 11500
Connection ~ 25850 11500
Wire Wire Line
	25850 11500 25850 12900
NoConn ~ 27400 11600
NoConn ~ 27400 11800
$Comp
L Device:Buzzer BZ1
U 1 1 5FA04C03
P 27300 12650
F 0 "BZ1" H 27400 12900 50  0000 L CNN
F 1 "Buzzer" H 27349 12802 50  0000 L CNN
F 2 "Connector_PinHeader_2.54mm:PinHeader_1x02_P2.54mm_Vertical" V 27275 12750 50  0001 C CNN
F 3 "~" V 27275 12750 50  0001 C CNN
	1    27300 12650
	1    0    0    -1  
$EndComp
Wire Wire Line
	27200 12550 27150 12550
Wire Wire Line
	27150 12550 27150 11900
Wire Wire Line
	27150 11900 27400 11900
Wire Wire Line
	27400 11700 27000 11700
Wire Wire Line
	27000 11700 27000 12750
Wire Wire Line
	27000 12750 27200 12750
$Comp
L Device:Q_PMOS_GSD Q10
U 1 1 5FBA1BBA
P 26900 10700
F 0 "Q10" H 27105 10654 50  0000 L CNN
F 1 "Q_PMOS_GSD" H 27105 10745 50  0000 L CNN
F 2 "Package_TO_SOT_SMD:SOT-23" H 27100 10800 50  0001 C CNN
F 3 "~" H 26900 10700 50  0001 C CNN
F 4 "SSM3J355R" H 26900 10700 50  0001 C CNN "MPN"
	1    26900 10700
	1    0    0    1   
$EndComp
Text Notes 26600 13450 0    100  ~ 0
Buzzer driver\nActive high
$Comp
L Switch:SW_Push SW1
U 1 1 5FD89253
P 27050 15350
F 0 "SW1" H 27050 15635 50  0000 C CNN
F 1 "SW_Push" H 27050 15544 50  0000 C CNN
F 2 "Button_Switch_SMD:SW_SPST_CK_KXT3" H 27050 15550 50  0001 C CNN
F 3 "~" H 27050 15550 50  0001 C CNN
F 4 "3mm*6mm" H 27050 15350 50  0001 C CNN "MPN"
	1    27050 15350
	1    0    0    -1  
$EndComp
$Comp
L Switch:SW_Push SW2
U 1 1 5FD89A0D
P 27050 15950
F 0 "SW2" H 27050 16235 50  0000 C CNN
F 1 "SW_Push" H 27050 16144 50  0000 C CNN
F 2 "Button_Switch_SMD:SW_SPST_CK_KXT3" H 27050 16150 50  0001 C CNN
F 3 "~" H 27050 16150 50  0001 C CNN
F 4 "3mm*6mm" H 27050 15950 50  0001 C CNN "MPN"
	1    27050 15950
	1    0    0    -1  
$EndComp
Text Label 25500 15350 0    50   ~ 0
P0.25
Wire Wire Line
	25500 15350 26550 15350
$Comp
L power:GND #PWR043
U 1 1 5FDBF665
P 28250 16200
F 0 "#PWR043" H 28250 15950 50  0001 C CNN
F 1 "GND" V 28255 16072 50  0000 R CNN
F 2 "" H 28250 16200 50  0001 C CNN
F 3 "" H 28250 16200 50  0001 C CNN
	1    28250 16200
	1    0    0    -1  
$EndComp
Wire Wire Line
	28250 15950 27250 15950
Wire Wire Line
	27250 15350 28250 15350
Wire Wire Line
	28250 15350 28250 15950
Connection ~ 28250 15950
Wire Wire Line
	28250 15950 28250 16200
Text Label 25500 15950 0    50   ~ 0
P0.31_AIN7
Wire Wire Line
	25500 15950 26200 15950
Text Label 20450 8300 0    50   ~ 0
P0.03_AIN1
$Comp
L Connector:Conn_01x03_Male J4
U 1 1 5F8BE5CA
P 22300 7200
F 0 "J4" H 22408 7481 50  0000 C CNN
F 1 "Debug pin" H 22408 7390 50  0000 C CNN
F 2 "Connector_PinHeader_1.27mm:PinHeader_1x03_P1.27mm_Vertical" H 22300 7200 50  0001 C CNN
F 3 "~" H 22300 7200 50  0001 C CNN
F 4 "-" H 22300 7200 50  0001 C CNN "MPN"
	1    22300 7200
	-1   0    0    -1  
$EndComp
$Comp
L Connector:Conn_01x03_Male J5
U 1 1 5F8CB004
P 25250 7200
F 0 "J5" H 25358 7481 50  0000 C CNN
F 1 "Debug pin" H 25358 7390 50  0000 C CNN
F 2 "Connector_PinHeader_1.27mm:PinHeader_1x03_P1.27mm_Vertical" H 25250 7200 50  0001 C CNN
F 3 "~" H 25250 7200 50  0001 C CNN
F 4 "-" H 25250 7200 50  0001 C CNN "MPN"
	1    25250 7200
	-1   0    0    -1  
$EndComp
$Comp
L Connector:Conn_01x03_Male J6
U 1 1 5F8CBF1F
P 29550 7200
F 0 "J6" H 29658 7481 50  0000 C CNN
F 1 "Debug pin" H 29658 7390 50  0000 C CNN
F 2 "Connector_PinHeader_1.27mm:PinHeader_1x03_P1.27mm_Vertical" H 29550 7200 50  0001 C CNN
F 3 "~" H 29550 7200 50  0001 C CNN
F 4 "-" H 29550 7200 50  0001 C CNN "MPN"
	1    29550 7200
	-1   0    0    -1  
$EndComp
Wire Wire Line
	20800 7100 22100 7100
Wire Wire Line
	23500 7100 24800 7100
$Comp
L power:GND #PWR032
U 1 1 5FA0254D
P 22100 7600
F 0 "#PWR032" H 22100 7350 50  0001 C CNN
F 1 "GND" H 22105 7427 50  0000 C CNN
F 2 "" H 22100 7600 50  0001 C CNN
F 3 "" H 22100 7600 50  0001 C CNN
	1    22100 7600
	1    0    0    -1  
$EndComp
Wire Wire Line
	22100 7300 22100 7600
$Comp
L power:GND #PWR037
U 1 1 5FA38A53
P 25050 7550
F 0 "#PWR037" H 25050 7300 50  0001 C CNN
F 1 "GND" H 25055 7377 50  0000 C CNN
F 2 "" H 25050 7550 50  0001 C CNN
F 3 "" H 25050 7550 50  0001 C CNN
	1    25050 7550
	1    0    0    -1  
$EndComp
Wire Wire Line
	25050 7300 25050 7550
$Comp
L power:GND #PWR041
U 1 1 5FA6D00C
P 29350 7550
F 0 "#PWR041" H 29350 7300 50  0001 C CNN
F 1 "GND" H 29355 7377 50  0000 C CNN
F 2 "" H 29350 7550 50  0001 C CNN
F 3 "" H 29350 7550 50  0001 C CNN
	1    29350 7550
	1    0    0    -1  
$EndComp
Wire Wire Line
	29350 7300 29350 7550
$Comp
L Jumper:SolderJumper_3_Open JP5
U 1 1 5FAA19ED
P 21250 7750
F 0 "JP5" V 21296 7817 50  0000 L CNN
F 1 "SEL" V 21205 7817 50  0000 L CNN
F 2 "Jumper:SolderJumper-3_P1.3mm_Open_RoundedPad1.0x1.5mm_NumberLabels" H 21250 7750 50  0001 C CNN
F 3 "~" H 21250 7750 50  0001 C CNN
F 4 "-" H 21250 7750 50  0001 C CNN "MPN"
	1    21250 7750
	0    -1   1    0   
$EndComp
$Comp
L Jumper:SolderJumper_3_Open JP6
U 1 1 5FAA5D86
P 24150 7750
F 0 "JP6" V 24196 7817 50  0000 L CNN
F 1 "SEL" V 24105 7817 50  0000 L CNN
F 2 "Jumper:SolderJumper-3_P1.3mm_Bridged12_RoundedPad1.0x1.5mm" H 24150 7750 50  0001 C CNN
F 3 "~" H 24150 7750 50  0001 C CNN
F 4 "-" H 24150 7750 50  0001 C CNN "MPN"
	1    24150 7750
	0    -1   -1   0   
$EndComp
$Comp
L Jumper:SolderJumper_3_Open JP8
U 1 1 5FAA76BF
P 28250 7700
F 0 "JP8" V 28296 7767 50  0000 L CNN
F 1 "SEL" V 28205 7767 50  0000 L CNN
F 2 "Jumper:SolderJumper-3_P1.3mm_Open_RoundedPad1.0x1.5mm_NumberLabels" H 28250 7700 50  0001 C CNN
F 3 "~" H 28250 7700 50  0001 C CNN
F 4 "-" H 28250 7700 50  0001 C CNN "MPN"
	1    28250 7700
	0    -1   1    0   
$EndComp
Wire Wire Line
	21450 7200 22100 7200
Wire Wire Line
	21500 8300 20950 8300
Wire Wire Line
	21400 7750 21450 7750
Wire Wire Line
	21450 7200 21450 7750
Wire Wire Line
	21250 7550 20950 7550
Wire Wire Line
	20950 7550 20950 8300
Connection ~ 20950 8300
Wire Wire Line
	20950 8300 20450 8300
Wire Wire Line
	21250 7950 21900 7950
Wire Wire Line
	21900 7950 21900 8100
Wire Wire Line
	28550 7200 28550 7700
Wire Wire Line
	28550 7700 28400 7700
Wire Wire Line
	28550 7200 29350 7200
Wire Wire Line
	28250 7500 27850 7500
Wire Wire Line
	27850 7500 27850 8300
Connection ~ 27850 8300
Wire Wire Line
	27850 8300 27800 8300
Wire Wire Line
	28250 7900 29050 7900
Wire Wire Line
	29050 7900 29050 8100
Wire Wire Line
	24500 7200 24500 7750
Wire Wire Line
	24500 7200 25050 7200
Wire Wire Line
	24150 7550 23850 7550
Wire Wire Line
	23850 7550 23850 8300
Connection ~ 23850 8300
Wire Wire Line
	23850 8300 23150 8300
Wire Wire Line
	24150 7950 24800 7950
Wire Wire Line
	24800 7950 24800 8100
$Comp
L Device:R R25
U 1 1 60117FC8
P 27650 8300
F 0 "R25" V 27500 8300 50  0000 C CNN
F 1 "0" V 27800 8300 50  0000 C CNN
F 2 "Resistor_SMD:R_0603_1608Metric" V 27580 8300 50  0001 C CNN
F 3 "~" H 27650 8300 50  0001 C CNN
F 4 "" H 27650 8300 50  0001 C CNN "MPN"
	1    27650 8300
	0    1    1    0   
$EndComp
Wire Wire Line
	27500 8300 27050 8300
Wire Notes Line
	12150 12900 12150 18700
Wire Notes Line
	20150 13650 29450 13650
$Comp
L Jumper:SolderJumper_2_Open JP7
U 1 1 6099A166
P 26200 14200
F 0 "JP7" H 26200 14405 50  0000 C CNN
F 1 "Status_leds" H 26200 14314 50  0000 C CNN
F 2 "Jumper:SolderJumper-2_P1.3mm_Open_RoundedPad1.0x1.5mm" H 26200 14200 50  0001 C CNN
F 3 "~" H 26200 14200 50  0001 C CNN
F 4 "-" H 26200 14200 50  0001 C CNN "MPN"
	1    26200 14200
	1    0    0    -1  
$EndComp
Wire Wire Line
	25800 14200 26050 14200
Text GLabel 25800 14200 0    50   Input ~ 0
1V8_LDO
$Comp
L Device:R R26
U 1 1 609D016B
P 26550 14850
F 0 "R26" V 26700 14850 50  0000 C CNN
F 1 "1k" V 26434 14850 50  0000 C CNN
F 2 "Resistor_SMD:R_0603_1608Metric" V 26480 14850 50  0001 C CNN
F 3 "~" H 26550 14850 50  0001 C CNN
F 4 "" H 26550 14850 50  0001 C CNN "MPN"
	1    26550 14850
	1    0    0    -1  
$EndComp
$Comp
L Device:R R21
U 1 1 60A08EE6
P 26200 15600
F 0 "R21" V 26350 15600 50  0000 C CNN
F 1 "1k" V 26084 15600 50  0000 C CNN
F 2 "Resistor_SMD:R_0603_1608Metric" V 26130 15600 50  0001 C CNN
F 3 "~" H 26200 15600 50  0001 C CNN
F 4 "" H 26200 15600 50  0001 C CNN "MPN"
	1    26200 15600
	1    0    0    -1  
$EndComp
Wire Wire Line
	26200 15750 26200 15950
Connection ~ 26200 15950
Wire Wire Line
	26200 15450 26200 14600
Wire Wire Line
	26200 14600 26350 14600
Wire Wire Line
	26550 14600 26550 14700
Wire Wire Line
	26350 14200 26350 14600
Connection ~ 26350 14600
Wire Wire Line
	26350 14600 26550 14600
Text GLabel 28300 9750 2    50   Input ~ 0
3V3_LDO
Wire Wire Line
	26200 15950 26850 15950
Wire Wire Line
	26550 15000 26550 15350
Connection ~ 26550 15350
Wire Wire Line
	26550 15350 26850 15350
$Comp
L Jumper:SolderJumper_2_Open JP9
U 1 1 5FB76698
P 27150 2000
F 0 "JP9" H 27150 2205 50  0000 C CNN
F 1 "Status_leds" H 27150 2114 50  0000 C CNN
F 2 "Jumper:SolderJumper-2_P1.3mm_Bridged_RoundedPad1.0x1.5mm" H 27150 2000 50  0001 C CNN
F 3 "~" H 27150 2000 50  0001 C CNN
F 4 "-" H 27150 2000 50  0001 C CNN "MPN"
	1    27150 2000
	1    0    0    -1  
$EndComp
Wire Wire Line
	27300 2000 27550 2000
Text GLabel 26800 2000 0    50   Input ~ 0
3V3_LDO
Wire Wire Line
	27000 2000 26800 2000
Wire Wire Line
	27550 2000 28850 2000
Connection ~ 27550 2000
$Comp
L Jumper:SolderJumper_3_Open JP10
U 1 1 5FD18987
P 27800 10000
F 0 "JP10" V 27846 10067 50  0000 L CNN
F 1 "SEL" V 27755 10067 50  0000 L CNN
F 2 "Jumper:SolderJumper-3_P1.3mm_Bridged12_RoundedPad1.0x1.5mm_NumberLabels" H 27800 10000 50  0001 C CNN
F 3 "~" H 27800 10000 50  0001 C CNN
F 4 "-" H 27800 10000 50  0001 C CNN "MPN"
	1    27800 10000
	0    1    -1   0   
$EndComp
Text GLabel 28300 10200 2    50   Input ~ 0
Vmain
Wire Wire Line
	28300 9750 27800 9750
Wire Wire Line
	27800 9750 27800 9800
Wire Wire Line
	28300 10200 27800 10200
Wire Wire Line
	22800 15800 23000 15800
Text GLabel 17400 15750 2    50   Input ~ 0
INT1-ACC_SENSOR
Wire Wire Line
	16550 15650 17400 15650
Text GLabel 3350 15250 2    50   Output ~ 0
INT1-ACC_SENSOR
$Comp
L 24rental-motherboard-rescue:LIS2DH12TR-TC-ICs U4
U 1 1 5F7DC027
P 2550 15000
F 0 "U4" H 2500 15515 50  0000 C CNN
F 1 "LIS2DH12TR" H 2500 15424 50  0000 C CNN
F 2 "TC-ICs:LIS12DH" H 2550 15600 50  0001 C CNN
F 3 "" H 2550 15600 50  0001 C CNN
F 4 "LIS2DH12TR" H 2550 15000 50  0001 C CNN "MPN"
	1    2550 15000
	1    0    0    -1  
$EndComp
Wire Wire Line
	4400 14450 4400 14750
Wire Wire Line
	1500 14450 4400 14450
Text GLabel 17400 15650 2    50   Input ~ 0
INT2-ACC_SENSOR
Wire Wire Line
	16550 15750 17400 15750
Text GLabel 3350 15150 2    50   Output ~ 0
INT2-ACC_SENSOR
Wire Wire Line
	3350 15150 3300 15150
Wire Wire Line
	3350 15250 3300 15250
Text Label 5000 10800 0    50   ~ 0
BATT_LVL_READ
Wire Wire Line
	3700 10450 3700 10800
Wire Wire Line
	3700 11300 3700 11700
$Comp
L Device:R R27
U 1 1 60176734
P 4150 10800
F 0 "R27" H 4220 10846 50  0000 L CNN
F 1 "100" V 4300 10650 50  0000 L CNN
F 2 "Resistor_SMD:R_0603_1608Metric" V 4080 10800 50  0001 C CNN
F 3 "~" H 4150 10800 50  0001 C CNN
F 4 "" H 4150 10800 50  0001 C CNN "MPN"
	1    4150 10800
	0    1    -1   0   
$EndComp
Wire Wire Line
	4000 10800 3700 10800
Connection ~ 3700 10800
Wire Wire Line
	3700 10800 3700 11000
Wire Wire Line
	4300 10800 4550 10800
$Comp
L Device:C C43
U 1 1 60229D55
P 4550 11100
F 0 "C43" H 4344 11117 50  0000 L CNN
F 1 "100nF" H 4269 11018 50  0000 L CNN
F 2 "Capacitor_SMD:C_0603_1608Metric" H 4588 10950 50  0001 C CNN
F 3 "~" H 4550 11100 50  0001 C CNN
F 4 "Kemet" H 4550 11100 50  0001 C CNN "MF"
F 5 "C0603C103J3GACTU" H 4550 11100 50  0001 C CNN "MPN"
	1    4550 11100
	1    0    0    -1  
$EndComp
Wire Wire Line
	4550 10950 4550 10800
Connection ~ 4550 10800
Wire Wire Line
	4550 10800 5000 10800
Wire Wire Line
	4550 11250 4550 11700
Wire Wire Line
	4550 11700 3700 11700
Connection ~ 3700 11700
Wire Wire Line
	3700 11700 3700 12050
$Comp
L TC-ICs:TVS_5IN1 Z2
U 1 1 5FF74D37
P 11050 13850
F 0 "Z2" H 12975 14265 50  0000 C CNN
F 1 "TVS_5IN1" H 12975 14174 50  0000 C CNN
F 2 "Package_TO_SOT_SMD:SOT-666" H 13000 13800 50  0001 L CNN
F 3 "https://assets.nexperia.com/documents/data-sheet/PESD5V0U5BF_PESD5V0U5BV.pdf" H 11400 13300 50  0001 L CNN
F 4 "PESD5V0U5BV" H 11050 13850 50  0001 C CNN "MPN"
	1    11050 13850
	1    0    0    -1  
$EndComp
$Comp
L TC-ICs:TVS_5IN1 Z1
U 1 1 5FF7DD63
P 11000 16400
F 0 "Z1" H 12925 16815 50  0000 C CNN
F 1 "TVS_5IN1" H 12925 16724 50  0000 C CNN
F 2 "Package_TO_SOT_SMD:SOT-666" H 12950 16350 50  0001 L CNN
F 3 "https://assets.nexperia.com/documents/data-sheet/PESD5V0U5BF_PESD5V0U5BV.pdf" H 11350 15850 50  0001 L CNN
F 4 "PESD5V0U5BV" H 11000 16400 50  0001 C CNN "MPN"
	1    11000 16400
	1    0    0    -1  
$EndComp
$Comp
L TC-ICs:TVS_5IN1 Z3
U 1 1 5FF81B79
P 21250 14700
F 0 "Z3" H 23175 13385 50  0000 C CNN
F 1 "TVS_5IN1" H 23175 13476 50  0000 C CNN
F 2 "Package_TO_SOT_SMD:SOT-666" H 23200 14650 50  0001 L CNN
F 3 "https://assets.nexperia.com/documents/data-sheet/PESD5V0U5BF_PESD5V0U5BV.pdf" H 21600 14150 50  0001 L CNN
F 4 "PESD5V0U5BV" H 21250 14700 50  0001 C CNN "MPN"
	1    21250 14700
	-1   0    0    1   
$EndComp
$Comp
L power:GND #PWR044
U 1 1 5FF8495A
P 12500 16850
F 0 "#PWR044" H 12500 16600 50  0001 C CNN
F 1 "GND" V 12505 16722 50  0000 R CNN
F 2 "" H 12500 16850 50  0001 C CNN
F 3 "" H 12500 16850 50  0001 C CNN
	1    12500 16850
	0    1    1    0   
$EndComp
$Comp
L power:GND #PWR045
U 1 1 5FF853BE
P 12550 14300
F 0 "#PWR045" H 12550 14050 50  0001 C CNN
F 1 "GND" V 12555 14172 50  0000 R CNN
F 2 "" H 12550 14300 50  0001 C CNN
F 3 "" H 12550 14300 50  0001 C CNN
	1    12550 14300
	0    1    1    0   
$EndComp
$Comp
L power:GND #PWR046
U 1 1 5FF86C27
P 19750 14250
F 0 "#PWR046" H 19750 14000 50  0001 C CNN
F 1 "GND" V 19755 14122 50  0000 R CNN
F 2 "" H 19750 14250 50  0001 C CNN
F 3 "" H 19750 14250 50  0001 C CNN
	1    19750 14250
	0    -1   -1   0   
$EndComp
Text Label 13950 14000 2    50   ~ 0
P0.25
Text Label 13950 13700 2    50   ~ 0
PWR_EN
Text Label 13950 14900 2    50   ~ 0
BATT_LVL_READ
Text Label 13400 14300 0    50   ~ 0
P0.31_AIN7
Text Label 13350 17450 0    50   ~ 0
PWRKEY
Text Label 13400 14600 0    50   ~ 0
LBO_LED
Text Label 13350 16250 0    50   ~ 0
PG_LED
Text Label 13350 16850 0    50   ~ 0
CHARGE_EN
$Comp
L power:GND #PWR047
U 1 1 601F01F0
P 19750 16900
F 0 "#PWR047" H 19750 16650 50  0001 C CNN
F 1 "GND" V 19755 16772 50  0000 R CNN
F 2 "" H 19750 16900 50  0001 C CNN
F 3 "" H 19750 16900 50  0001 C CNN
	1    19750 16900
	0    -1   -1   0   
$EndComp
Text Label 18900 13650 2    50   ~ 0
SDA
Text Label 18900 13950 2    50   ~ 0
SCL
Text Label 18900 14250 2    50   ~ 0
SDA2
Text Label 18900 14550 2    50   ~ 0
SCL2
Text Label 18900 14850 2    50   ~ 0
P0.00
Text Label 18500 16900 0    50   ~ 0
P0.01
Text Label 18500 16600 0    50   ~ 0
P0.02_AIN0
Text Label 18500 16300 0    50   ~ 0
P0.03_AIN1
Text Label 18500 17500 0    50   ~ 0
P0.04_AIN2
Text Label 18500 17200 0    50   ~ 0
P0.05_AIN3
Wire Wire Line
	15200 16550 15100 16550
$Comp
L power:GND #PWR017
U 1 1 5F7DC137
P 15100 16550
F 0 "#PWR017" H 15100 16300 50  0001 C CNN
F 1 "GND" V 15105 16422 50  0000 R CNN
F 2 "" H 15100 16550 50  0001 C CNN
F 3 "" H 15100 16550 50  0001 C CNN
	1    15100 16550
	0    1    1    0   
$EndComp
Wire Wire Line
	14350 15950 15200 15950
Text GLabel 14350 15950 0    50   Input ~ 0
VBAT
$Comp
L TC-ICs:TVS_5IN1 Z4
U 1 1 601717A4
P 21250 17350
F 0 "Z4" H 23175 16035 50  0000 C CNN
F 1 "TVS_5IN1" H 23175 16126 50  0000 C CNN
F 2 "Package_TO_SOT_SMD:SOT-666" H 23200 17300 50  0001 L CNN
F 3 "https://assets.nexperia.com/documents/data-sheet/PESD5V0U5BF_PESD5V0U5BV.pdf" H 21600 16800 50  0001 L CNN
F 4 "PESD5V0U5BV" H 21250 17350 50  0001 C CNN "MPN"
	1    21250 17350
	-1   0    0    1   
$EndComp
Wire Wire Line
	18900 16900 18500 16900
Wire Wire Line
	18500 16600 18900 16600
Wire Wire Line
	18900 16300 18500 16300
Wire Wire Line
	18900 17200 18500 17200
Wire Wire Line
	18500 17500 18900 17500
Wire Wire Line
	13950 13700 13400 13700
Wire Wire Line
	13400 14000 13950 14000
Wire Wire Line
	13400 14900 13950 14900
NoConn ~ 13350 16550
NoConn ~ 13350 17150
$Comp
L Mechanical:MountingHole H7
U 1 1 60DCBE36
P 12750 3450
F 0 "H7" H 12850 3496 50  0000 L CNN
F 1 "MountingHole" H 12850 3405 50  0000 L CNN
F 2 "TC-Logo:THETC_LOGO_FOOTPRINT_MASK" H 12750 3450 50  0001 C CNN
F 3 "~" H 12750 3450 50  0001 C CNN
	1    12750 3450
	1    0    0    -1  
$EndComp
$Comp
L Device:LED D6
U 1 1 60DF5552
P 21750 2300
F 0 "D6" H 21743 2517 50  0000 C CNN
F 1 "LED" H 21743 2426 50  0000 C CNN
F 2 "LED_SMD:LED_1206_3216Metric" H 21750 2300 50  0001 C CNN
F 3 "~" H 21750 2300 50  0001 C CNN
	1    21750 2300
	0    -1   -1   0   
$EndComp
$Comp
L Device:LED D11
U 1 1 60DF5AB1
P 23600 2300
F 0 "D11" H 23593 2517 50  0000 C CNN
F 1 "LED" H 23593 2426 50  0000 C CNN
F 2 "LED_SMD:LED_1206_3216Metric" H 23600 2300 50  0001 C CNN
F 3 "~" H 23600 2300 50  0001 C CNN
	1    23600 2300
	0    -1   -1   0   
$EndComp
$Comp
L Device:LED D12
U 1 1 60DF5EC8
P 25300 2350
F 0 "D12" H 25293 2567 50  0000 C CNN
F 1 "LED" H 25293 2476 50  0000 C CNN
F 2 "LED_SMD:LED_1206_3216Metric" H 25300 2350 50  0001 C CNN
F 3 "~" H 25300 2350 50  0001 C CNN
	1    25300 2350
	0    -1   -1   0   
$EndComp
Wire Wire Line
	21750 1950 21750 2150
Wire Wire Line
	23600 1950 23600 2150
Wire Wire Line
	25300 2000 25300 2200
Wire Wire Line
	21750 2450 21750 2600
Wire Wire Line
	21750 2600 21500 2600
Wire Wire Line
	21500 2600 21500 2650
Wire Wire Line
	23600 2450 23600 2600
Wire Wire Line
	23600 2600 23350 2600
Wire Wire Line
	23350 2600 23350 2650
Wire Wire Line
	25300 2500 25300 2650
Wire Wire Line
	25300 2650 25100 2650
Wire Wire Line
	25100 2650 25100 2700
$Comp
L Connector:TestPoint TP12
U 1 1 60FE2B9F
P 17250 10800
F 0 "TP12" H 17308 10918 50  0000 L CNN
F 1 "TestPoint" H 17308 10827 50  0000 L CNN
F 2 "TestPoint:TestPoint_Pad_D1.0mm" H 17450 10800 50  0001 C CNN
F 3 "~" H 17450 10800 50  0001 C CNN
	1    17250 10800
	1    0    0    -1  
$EndComp
Connection ~ 17250 10800
Wire Wire Line
	17250 10800 17350 10800
$Comp
L Connector:TestPoint TP11
U 1 1 60FE4656
P 10800 11750
F 0 "TP11" H 10858 11868 50  0000 L CNN
F 1 "TestPoint" H 10858 11777 50  0000 L CNN
F 2 "TestPoint:TestPoint_Pad_D1.0mm" H 11000 11750 50  0001 C CNN
F 3 "~" H 11000 11750 50  0001 C CNN
	1    10800 11750
	1    0    0    -1  
$EndComp
Connection ~ 10800 11750
Wire Wire Line
	10800 11750 10950 11750
$Comp
L Connector:TestPoint TP8
U 1 1 60FE9DB4
P 8250 15200
F 0 "TP8" H 8308 15318 50  0000 L CNN
F 1 "TestPoint" H 8308 15227 50  0001 L CNN
F 2 "TestPoint:TestPoint_Pad_D1.0mm" H 8450 15200 50  0001 C CNN
F 3 "~" H 8450 15200 50  0001 C CNN
	1    8250 15200
	1    0    0    -1  
$EndComp
Connection ~ 8250 15200
Wire Wire Line
	8250 15200 8400 15200
$Comp
L Connector:TestPoint TP7
U 1 1 60FED407
P 8200 15400
F 0 "TP7" H 8258 15518 50  0000 L CNN
F 1 "TestPoint" H 8258 15427 50  0001 L CNN
F 2 "TestPoint:TestPoint_Pad_D1.0mm" H 8400 15400 50  0001 C CNN
F 3 "~" H 8400 15400 50  0001 C CNN
	1    8200 15400
	1    0    0    -1  
$EndComp
Connection ~ 8200 15400
Wire Wire Line
	8200 15400 8100 15400
$Comp
L Connector:TestPoint TP10
U 1 1 60FEF0C0
P 3300 15250
F 0 "TP10" H 3358 15368 50  0000 L CNN
F 1 "TestPoint" H 3358 15277 50  0001 L CNN
F 2 "TestPoint:TestPoint_Pad_D1.0mm" H 3500 15250 50  0001 C CNN
F 3 "~" H 3500 15250 50  0001 C CNN
	1    3300 15250
	-1   0    0    1   
$EndComp
Connection ~ 3300 15250
$Comp
L Connector:TestPoint TP9
U 1 1 60FF4E77
P 3300 15150
F 0 "TP9" H 3358 15268 50  0000 L CNN
F 1 "TestPoint" H 3358 15177 50  0001 L CNN
F 2 "TestPoint:TestPoint_Pad_D1.0mm" H 3500 15150 50  0001 C CNN
F 3 "~" H 3500 15150 50  0001 C CNN
	1    3300 15150
	1    0    0    -1  
$EndComp
Connection ~ 3300 15150
Wire Wire Line
	3050 10650 3250 10650
Wire Wire Line
	21350 1950 21750 1950
Wire Wire Line
	23200 1950 23600 1950
Wire Wire Line
	24950 2000 25300 2000
Wire Wire Line
	2500 6450 2500 5950
$Comp
L Device:R R1
U 1 1 603015F4
P 2750 5950
F 0 "R1" H 2820 5996 50  0000 L CNN
F 1 "10" V 2900 5800 50  0000 L CNN
F 2 "Resistor_SMD:R_1210_3225Metric" V 2680 5950 50  0001 C CNN
F 3 "~" H 2750 5950 50  0001 C CNN
F 4 "" H 2750 5950 50  0001 C CNN "MPN"
	1    2750 5950
	0    1    -1   0   
$EndComp
$Comp
L Device:C C1
U 1 1 60302FAB
P 3050 6100
F 0 "C1" H 2844 6117 50  0000 L CNN
F 1 "100nF" H 2769 6018 50  0000 L CNN
F 2 "Capacitor_SMD:C_0402_1005Metric" H 3088 5950 50  0001 C CNN
F 3 "~" H 3050 6100 50  0001 C CNN
F 4 "Kemet" H 3050 6100 50  0001 C CNN "MF"
F 5 "C0603C103J3GACTU" H 3050 6100 50  0001 C CNN "MPN"
	1    3050 6100
	1    0    0    -1  
$EndComp
Wire Wire Line
	2500 5950 2600 5950
Wire Wire Line
	2900 5950 3050 5950
Connection ~ 3050 5950
Wire Wire Line
	3050 5950 3500 5950
Wire Wire Line
	3500 5950 3500 6150
Wire Wire Line
	3500 6750 3750 6750
Connection ~ 3500 5950
Wire Wire Line
	3500 5950 3750 5950
Wire Wire Line
	3750 6550 3500 6550
Connection ~ 3500 6550
Wire Wire Line
	3500 6550 3500 6750
Wire Wire Line
	3750 6350 3500 6350
Connection ~ 3500 6350
Wire Wire Line
	3500 6350 3500 6550
Wire Wire Line
	3750 6150 3500 6150
Connection ~ 3500 6150
Wire Wire Line
	3500 6150 3500 6350
$Comp
L Device:R R2
U 1 1 6047ABA0
P 3300 7400
F 0 "R2" H 3370 7446 50  0000 L CNN
F 1 "10k" H 3370 7355 50  0000 L CNN
F 2 "Resistor_SMD:R_0603_1608Metric_Pad1.05x0.95mm_HandSolder" V 3230 7400 50  0001 C CNN
F 3 "~" H 3300 7400 50  0001 C CNN
F 4 "" H 3300 7400 50  0001 C CNN "MPN"
	1    3300 7400
	-1   0    0    -1  
$EndComp
$Comp
L Device:Thermistor TH2
U 1 1 6047CCCB
P 3300 7900
F 0 "TH2" H 3405 7946 50  0000 L CNN
F 1 "NTC 10k" H 3405 7855 50  0000 L CNN
F 2 "Resistor_SMD:R_0603_1608Metric_Pad1.05x0.95mm_HandSolder" H 3300 7900 50  0001 C CNN
F 3 "~" H 3300 7900 50  0001 C CNN
F 4 "NCU18XH103F60RB" H 3300 7900 50  0001 C CNN "MPN"
	1    3300 7900
	1    0    0    -1  
$EndComp
Wire Wire Line
	3300 7250 3300 7100
Wire Wire Line
	3300 7100 3750 7100
$Comp
L power:GND #PWR0101
U 1 1 604D4B8D
P 3300 8250
F 0 "#PWR0101" H 3300 8000 50  0001 C CNN
F 1 "GND" H 3305 8077 50  0000 C CNN
F 2 "" H 3300 8250 50  0001 C CNN
F 3 "" H 3300 8250 50  0001 C CNN
	1    3300 8250
	1    0    0    -1  
$EndComp
Wire Wire Line
	3300 8250 3300 8100
$Comp
L Device:R R3
U 1 1 6052BAC0
P 4500 8500
F 0 "R3" V 4400 8550 50  0000 L CNN
F 1 "0.01" V 4600 8400 50  0000 L CNN
F 2 "Resistor_SMD:R_1210_3225Metric" V 4430 8500 50  0001 C CNN
F 3 "~" H 4500 8500 50  0001 C CNN
F 4 "WSLP0805R0100FEA18" H 4500 8500 50  0001 C CNN "MPN"
F 5 "RES 0.01 OHM 1% 1W 0805" V 4500 8500 50  0001 C CNN "Description"
	1    4500 8500
	0    -1   1    0   
$EndComp
Wire Wire Line
	2250 8500 4200 8500
Wire Wire Line
	4450 8050 4700 8050
Wire Wire Line
	4700 8050 4700 7750
Wire Wire Line
	4450 7750 4450 8050
Wire Wire Line
	4700 8050 4700 8500
Wire Wire Line
	4700 8500 4650 8500
Connection ~ 4700 8050
Connection ~ 4700 8500
Connection ~ 2500 5950
$Comp
L Device:R R28
U 1 1 606C3E0F
P 6000 5950
F 0 "R28" H 6070 5996 50  0000 L CNN
F 1 "1k" V 6150 5800 50  0000 L CNN
F 2 "Resistor_SMD:R_0603_1608Metric" V 5930 5950 50  0001 C CNN
F 3 "~" H 6000 5950 50  0001 C CNN
F 4 "" H 6000 5950 50  0001 C CNN "MPN"
	1    6000 5950
	0    1    -1   0   
$EndComp
$Comp
L Device:R R29
U 1 1 606C5759
P 6500 6250
F 0 "R29" H 6570 6296 50  0000 L CNN
F 1 "150" V 6650 6100 50  0000 L CNN
F 2 "Resistor_SMD:R_0603_1608Metric" V 6430 6250 50  0001 C CNN
F 3 "~" H 6500 6250 50  0001 C CNN
F 4 "" H 6500 6250 50  0001 C CNN "MPN"
	1    6500 6250
	0    1    -1   0   
$EndComp
$Comp
L Device:R R30
U 1 1 606C5DF4
P 7050 6500
F 0 "R30" H 7120 6546 50  0000 L CNN
F 1 "150" V 7200 6350 50  0000 L CNN
F 2 "Resistor_SMD:R_0603_1608Metric" V 6980 6500 50  0001 C CNN
F 3 "~" H 7050 6500 50  0001 C CNN
F 4 "" H 7050 6500 50  0001 C CNN "MPN"
	1    7050 6500
	0    1    -1   0   
$EndComp
$Comp
L Device:D_Zener_Small D2
U 1 1 606CB7EF
P 5600 6050
F 0 "D2" V 5554 6120 50  0000 L CNN
F 1 "D_Zener_Small" V 5645 6120 50  0000 L CNN
F 2 "Diode_SMD:D_SOD-323" V 5600 6050 50  0001 C CNN
F 3 "~" V 5600 6050 50  0001 C CNN
	1    5600 6050
	0    1    1    0   
$EndComp
$Comp
L Device:D_Zener_Small D3
U 1 1 606CD43E
P 6050 6350
F 0 "D3" V 6004 6420 50  0000 L CNN
F 1 "D_Zener_Small" V 6095 6420 50  0000 L CNN
F 2 "Diode_SMD:D_SOD-323" V 6050 6350 50  0001 C CNN
F 3 "~" V 6050 6350 50  0001 C CNN
	1    6050 6350
	0    1    1    0   
$EndComp
$Comp
L Device:D_Zener_Small D13
U 1 1 606CDAEF
P 6600 6600
F 0 "D13" V 6554 6670 50  0000 L CNN
F 1 "D_Zener_Small" V 6645 6670 50  0000 L CNN
F 2 "Diode_SMD:D_SOD-323" V 6800 6650 50  0001 C CNN
F 3 "~" V 6600 6600 50  0001 C CNN
	1    6600 6600
	0    1    1    0   
$EndComp
Wire Wire Line
	5400 5950 5600 5950
Connection ~ 5600 5950
Wire Wire Line
	5600 5950 5850 5950
Wire Wire Line
	5400 6250 6050 6250
Connection ~ 6050 6250
Wire Wire Line
	6050 6250 6350 6250
Wire Wire Line
	6650 6250 7550 6250
Wire Wire Line
	5400 6500 6600 6500
Connection ~ 6600 6500
Wire Wire Line
	6600 6500 6900 6500
Wire Wire Line
	7200 6500 7550 6500
NoConn ~ 5400 6950
Wire Wire Line
	5600 6150 5600 6950
Wire Wire Line
	5600 6950 6050 6950
Wire Wire Line
	6050 6950 6050 6450
Wire Wire Line
	6600 6700 6600 6950
Wire Wire Line
	6600 6950 6050 6950
Connection ~ 6050 6950
$Comp
L Device:C C2
U 1 1 60A09351
P 5600 7400
F 0 "C2" H 5715 7446 50  0000 L CNN
F 1 "0.47u" H 5715 7355 50  0000 L CNN
F 2 "Capacitor_SMD:C_0402_1005Metric" H 5638 7250 50  0001 C CNN
F 3 "~" H 5600 7400 50  0001 C CNN
F 4 "100V, X7R" H 5600 7400 50  0001 C CNN "Rating"
	1    5600 7400
	1    0    0    -1  
$EndComp
Wire Wire Line
	5400 7150 5600 7150
Wire Wire Line
	5600 7150 5600 7250
Wire Wire Line
	5600 7550 5600 7650
Wire Wire Line
	5600 7650 6050 7650
Wire Wire Line
	6050 6950 6050 7650
Connection ~ 6050 7650
Wire Wire Line
	3050 6500 3050 6250
Text Notes 13600 7750 0    80   ~ 0
https://webench.ti.com/power-designer/switching-regulator/customize/13?noparams=0
Wire Wire Line
	17600 6750 17600 7150
Wire Wire Line
	17600 6150 17750 6150
Connection ~ 17600 6150
Wire Wire Line
	17600 6450 17600 6150
$Comp
L Device:C C5
U 1 1 60C32F23
P 17600 6600
F 0 "C5" H 17715 6646 50  0000 L CNN
F 1 "27uF" H 17715 6555 50  0000 L CNN
F 2 "Capacitor_SMD:C_Elec_5x5.8" H 17638 6450 50  0001 C CNN
F 3 "https://industrial.panasonic.com/ww/products/capacitors/polymer-capacitors/os-con/svpf/25SVPF27MX" H 17600 6600 50  0001 C CNN
F 4 "Panasonic 25SVPF27MX" H 17600 6600 50  0001 C CNN "MPN"
	1    17600 6600
	1    0    0    -1  
$EndComp
Wire Wire Line
	15500 7150 16000 7150
Connection ~ 15500 7150
Wire Wire Line
	15500 7300 15500 7150
$Comp
L power:GND #PWR0105
U 1 1 60C32F2C
P 15500 7300
F 0 "#PWR0105" H 15500 7050 50  0001 C CNN
F 1 "GND" H 15505 7127 50  0000 C CNN
F 2 "" H 15500 7300 50  0001 C CNN
F 3 "" H 15500 7300 50  0001 C CNN
	1    15500 7300
	1    0    0    -1  
$EndComp
Wire Wire Line
	15600 5750 15600 5850
Wire Wire Line
	15250 5750 15600 5750
Wire Wire Line
	15250 6000 15250 5750
Wire Wire Line
	15200 6000 15250 6000
Wire Wire Line
	13850 6500 13850 7150
Wire Wire Line
	13850 7150 14350 7150
Wire Wire Line
	14350 7150 15500 7150
Connection ~ 14350 7150
Wire Wire Line
	14350 6300 14350 7150
Wire Wire Line
	14450 6300 14350 6300
NoConn ~ 14450 6150
Wire Wire Line
	13600 6000 13850 6000
Wire Wire Line
	13850 6000 14450 6000
Connection ~ 13850 6000
Wire Wire Line
	13850 6200 13850 6000
Wire Wire Line
	16000 7150 16000 7050
Wire Wire Line
	16000 6150 16400 6150
Connection ~ 16000 6150
Wire Wire Line
	16000 6750 16000 6150
Connection ~ 16000 7150
Wire Wire Line
	16000 7150 16950 7150
Wire Wire Line
	16950 7150 16950 7050
Connection ~ 16950 7150
Wire Wire Line
	17600 7150 16950 7150
Wire Wire Line
	16950 6650 16950 6750
Wire Wire Line
	15250 6300 15200 6300
Wire Wire Line
	15250 6650 15250 6300
Wire Wire Line
	16950 6650 15250 6650
Connection ~ 16950 6650
Wire Wire Line
	16950 6450 16950 6650
$Comp
L Device:R R33
U 1 1 60C32F52
P 16950 6900
F 0 "R33" H 17020 6946 50  0000 L CNN
F 1 "20K" H 17020 6855 50  0000 L CNN
F 2 "Resistor_SMD:R_0603_1608Metric" V 16880 6900 50  0001 C CNN
F 3 "~" H 16950 6900 50  0001 C CNN
F 4 "1%" H 16950 6900 50  0001 C CNN "Tolerance"
F 5 "CRCW040220K0FKED" H 16950 6900 50  0001 C CNN "MPN"
	1    16950 6900
	1    0    0    -1  
$EndComp
Wire Wire Line
	16950 6150 17600 6150
Wire Wire Line
	16700 6150 16950 6150
Connection ~ 16950 6150
$Comp
L Device:R R32
U 1 1 60C32F5D
P 16950 6300
F 0 "R32" H 17020 6346 50  0000 L CNN
F 1 "111K" H 17020 6255 50  0000 L CNN
F 2 "Resistor_SMD:R_0603_1608Metric" V 16880 6300 50  0001 C CNN
F 3 "~" H 16950 6300 50  0001 C CNN
F 4 "0.1%" H 16950 6300 50  0001 C CNN "Tolerance"
F 5 "ERA-6AEB114V" H 16950 6300 50  0001 C CNN "MPN"
	1    16950 6300
	1    0    0    -1  
$EndComp
$Comp
L Device:L L1
U 1 1 60C32F64
P 16550 6150
F 0 "L1" V 16740 6150 50  0000 C CNN
F 1 "22uH/80mOhm" V 16649 6150 50  0000 C CNN
F 2 "Inductor_SMD:L_TDK_SLF7045" H 16550 6150 50  0001 C CNN
F 3 "https://media.digikey.com/pdf/Data%20Sheets/TDK%20PDFs/CLF-D_Series(Auto).pdf" H 16550 6150 50  0001 C CNN
F 4 "CLF7045T-220M-D" V 16550 6150 50  0001 C CNN "MPN"
	1    16550 6150
	0    -1   -1   0   
$EndComp
Wire Wire Line
	15600 6150 16000 6150
Wire Wire Line
	15200 6150 15600 6150
Connection ~ 15600 6150
$Comp
L Device:C C4
U 1 1 60C32F6E
P 15600 6000
F 0 "C4" H 15715 6046 50  0000 L CNN
F 1 "100nF" H 15715 5955 50  0000 L CNN
F 2 "Capacitor_SMD:C_0402_1005Metric" H 15638 5850 50  0001 C CNN
F 3 "https://www.murata.com/~/media/webrenewal/support/library/catalog/products/capacitor/mlcc/c02e.ashx?la=en-us" H 15600 6000 50  0001 C CNN
F 4 "Murata GRM188R61E224KA88D" H 15600 6000 50  0001 C CNN "MPN"
	1    15600 6000
	1    0    0    -1  
$EndComp
$Comp
L Device:D_Schottky D15
U 1 1 60C32F77
P 16000 6900
F 0 "D15" V 15954 6980 50  0000 L CNN
F 1 "D_Schottky_550mV/1A" V 16045 6980 50  0000 L CNN
F 2 "Diode_SMD:D_SOD-123F" H 16000 6900 50  0001 C CNN
F 3 "https://www.onsemi.com/pub/Collateral/SS14FL-D.PDF" H 16000 6900 50  0001 C CNN
F 4 "ON Semi SS14FL" V 16000 6900 50  0001 C CNN "MPN"
F 5 "Automotive" V 16000 6900 50  0001 C CNN "Degree"
F 6 "-55°C ~ 125°C" V 16000 6900 50  0001 C CNN "opt.temp"
	1    16000 6900
	0    1    1    0   
$EndComp
$Comp
L Device:C C3
U 1 1 60C32F7E
P 13850 6350
F 0 "C3" H 13965 6396 50  0000 L CNN
F 1 "10uF" H 13965 6305 50  0000 L CNN
F 2 "Capacitor_SMD:C_1210_3225Metric" H 13888 6200 50  0001 C CNN
F 3 "https://product.tdk.com/info/en/catalog/datasheets/mlcc_commercial_general_en.pdf" H 13850 6350 50  0001 C CNN
F 4 "C3225X7R1H106M250AC" H 13850 6350 50  0001 C CNN "MPN"
	1    13850 6350
	1    0    0    -1  
$EndComp
$Comp
L hmi_board_b:LMR14010 U7
U 1 1 60C32F86
P 14800 6150
F 0 "U7" H 14550 6550 50  0000 L CNN
F 1 "LMR14010" H 14700 6450 50  0000 L CNN
F 2 "Package_TO_SOT_SMD:TSOT-23-6" H 14500 6500 50  0001 C CNN
F 3 "http://www.ti.com/general/docs/suppproductinfo.tsp?distId=10&gotoUrl=http%3A%2F%2Fwww.ti.com%2Flit%2Fgpn%2Flmr14010a" H 14500 6500 50  0001 C CNN
F 4 "LMR14010ADDCR" H 14800 6150 50  0001 C CNN "MPN"
F 5 "-40°C ~ 125°C (TJ)" H 14800 6150 50  0001 C CNN "opt.temp"
	1    14800 6150
	1    0    0    -1  
$EndComp
Text GLabel 13600 6000 0    50   Input ~ 0
12V_IN
Text GLabel 17750 6150 2    80   Input ~ 0
5V0_SW
Wire Wire Line
	4200 7750 4200 8500
Connection ~ 4200 8500
Wire Wire Line
	4200 8500 4350 8500
$Comp
L TC-ICs:MAX17201 U1
U 1 1 601C48C3
P 4200 6250
F 0 "U1" H 4575 6865 50  0000 C CNN
F 1 "MAX17201" H 4575 6774 50  0000 C CNN
F 2 "TC-ICs:TDFN-14 3MM.3MM_mod" H 3850 6800 50  0001 C CNN
F 3 "https://www.maximintegrated.com/en/products/power/battery-management/MAX17201.html" H 3850 6800 50  0001 C CNN
F 4 "MAX17201G+T" H 4200 6250 50  0001 C CNN "MPN"
	1    4200 6250
	1    0    0    -1  
$EndComp
Wire Wire Line
	3300 7550 3300 7650
Wire Wire Line
	3750 7350 3550 7350
Wire Wire Line
	3550 7350 3550 7650
Wire Wire Line
	3550 7650 3300 7650
Connection ~ 3300 7650
Wire Wire Line
	3300 7650 3300 7700
Text Notes 4300 8750 0    50   ~ 0
Accuracy +-1%
Wire Wire Line
	2500 5350 3900 5350
Wire Wire Line
	2500 5350 2500 5950
Wire Wire Line
	9700 5350 9800 5350
$Comp
L Device:Q_PMOS_GSD Q11
U 1 1 60346691
P 9000 5450
F 0 "Q11" V 9342 5450 50  0000 C CNN
F 1 "Q_PMOS_GSD" V 9251 5450 50  0000 C CNN
F 2 "Package_TO_SOT_SMD:SOT-23" H 9200 5550 50  0001 C CNN
F 3 "~" H 9000 5450 50  0001 C CNN
	1    9000 5450
	0    -1   -1   0   
$EndComp
Wire Wire Line
	9000 5650 9000 5850
Connection ~ 9700 5350
Wire Wire Line
	9700 5350 9700 5400
Wire Wire Line
	9000 5850 9000 5950
Connection ~ 9000 5850
Wire Wire Line
	9700 5850 9450 5850
Wire Wire Line
	9700 5700 9700 5850
Wire Wire Line
	9700 5350 9450 5350
$Comp
L Device:R R31
U 1 1 6034666B
P 9000 6100
F 0 "R31" H 9070 6146 50  0000 L CNN
F 1 "1k" H 9070 6055 50  0000 L CNN
F 2 "Resistor_SMD:R_0603_1608Metric" V 8930 6100 50  0001 C CNN
F 3 "~" H 9000 6100 50  0001 C CNN
F 4 "" H 9000 6100 50  0001 C CNN "MPN"
	1    9000 6100
	1    0    0    -1  
$EndComp
$Comp
L Device:D_Zener D14
U 1 1 60346664
P 9700 5550
F 0 "D14" V 9654 5630 50  0000 L CNN
F 1 "D_Zener" V 9745 5630 50  0000 L CNN
F 2 "Diode_SMD:D_SOD-123" H 9700 5550 50  0001 C CNN
F 3 "~" H 9700 5550 50  0001 C CNN
	1    9700 5550
	0    1    1    0   
$EndComp
$Comp
L power:GND #PWR0106
U 1 1 60B1CE8E
P 9000 6450
F 0 "#PWR0106" H 9000 6200 50  0001 C CNN
F 1 "GND" H 9005 6277 50  0000 C CNN
F 2 "" H 9000 6450 50  0001 C CNN
F 3 "" H 9000 6450 50  0001 C CNN
	1    9000 6450
	1    0    0    -1  
$EndComp
Wire Wire Line
	9000 6450 9000 6250
Wire Bus Line
	500  12950 500  12900
Wire Notes Line
	20150 12900 500  12900
Text GLabel 10500 5350 2    50   Output ~ 0
VBAT
$Comp
L Jumper:SolderJumper_2_Open JP11
U 1 1 606DDB11
P 4450 4900
F 0 "JP11" H 4450 5105 50  0000 C CNN
F 1 "Status_leds" H 4450 5014 50  0000 C CNN
F 2 "Jumper:SolderJumper-2_P1.3mm_Bridged2Bar_RoundedPad1.0x1.5mm" H 4450 4900 50  0001 C CNN
F 3 "~" H 4450 4900 50  0001 C CNN
F 4 "-" H 4450 4900 50  0001 C CNN "MPN"
	1    4450 4900
	1    0    0    -1  
$EndComp
$Comp
L Jumper:SolderJumper_2_Open JP12
U 1 1 606DFD9A
P 9000 4750
F 0 "JP12" H 9000 4955 50  0000 C CNN
F 1 "Status_leds" H 9000 4864 50  0000 C CNN
F 2 "Jumper:SolderJumper-2_P1.3mm_Open_RoundedPad1.0x1.5mm" H 9000 4750 50  0001 C CNN
F 3 "~" H 9000 4750 50  0001 C CNN
F 4 "-" H 9000 4750 50  0001 C CNN "MPN"
	1    9000 4750
	1    0    0    -1  
$EndComp
Wire Wire Line
	4300 4900 3900 4900
Wire Wire Line
	3900 4900 3900 5350
Wire Wire Line
	5250 4900 5250 5350
Wire Wire Line
	5250 5350 8200 5350
Wire Wire Line
	4600 4900 5250 4900
Wire Wire Line
	8850 4750 8200 4750
Wire Wire Line
	8200 4750 8200 5350
Connection ~ 8200 5350
Wire Wire Line
	8200 5350 8800 5350
Wire Wire Line
	9150 4750 9800 4750
Wire Wire Line
	9800 4750 9800 5350
Connection ~ 9800 5350
Wire Wire Line
	9800 5350 10500 5350
Wire Notes Line
	29900 9600 450  9600
Wire Notes Line
	550  4100 20150 4100
Wire Notes Line
	20150 500  20150 18950
Wire Notes Line
	12000 450  12000 9600
Wire Wire Line
	2250 6650 2250 8500
$Comp
L Device:D D1
U 1 1 61183024
P 4400 5350
F 0 "D1" H 4400 5133 50  0000 C CNN
F 1 "D" H 4400 5224 50  0000 C CNN
F 2 "Diode_SMD:D_2010_5025Metric" H 4400 5350 50  0001 C CNN
F 3 "~" H 4400 5350 50  0001 C CNN
	1    4400 5350
	-1   0    0    1   
$EndComp
Wire Wire Line
	4250 5350 3900 5350
Connection ~ 3900 5350
Wire Wire Line
	4550 5350 5250 5350
Connection ~ 5250 5350
Wire Wire Line
	4700 8500 5150 8500
$Comp
L Device:R R34
U 1 1 61365ECB
P 9450 5600
F 0 "R34" H 9520 5646 50  0000 L CNN
F 1 "2.7k" H 9520 5555 50  0000 L CNN
F 2 "Resistor_SMD:R_0603_1608Metric" V 9380 5600 50  0001 C CNN
F 3 "~" H 9450 5600 50  0001 C CNN
F 4 "" H 9450 5600 50  0001 C CNN "MPN"
	1    9450 5600
	1    0    0    -1  
$EndComp
Wire Wire Line
	9450 5450 9450 5350
Connection ~ 9450 5350
Wire Wire Line
	9450 5350 9400 5350
Wire Wire Line
	9450 5750 9450 5850
Connection ~ 9450 5850
Wire Wire Line
	9450 5850 9000 5850
Text Label 15850 6150 0    50   ~ 0
rectification
Text Label 5450 7150 0    50   ~ 0
REG2
Text Label 3250 5950 0    50   ~ 0
VBATT_ER34615
Text Label 4200 8500 0    50   ~ 0
CSP
Text Label 4700 8500 0    50   ~ 0
CSN
Text Label 2500 6450 0    50   ~ 0
ER34615_V+
$Comp
L Connector:Conn_01x08_Male J9
U 1 1 6175552C
P 1650 6550
F 0 "J9" H 1758 6939 50  0000 C CNN
F 1 "Conn_01x08_Male" H 1758 6940 50  0001 C CNN
F 2 "Connector_JST:JST_EH_B8B-EH-A_1x08_P2.50mm_Vertical" H 1650 6550 50  0001 C CNN
F 3 "~" H 1650 6550 50  0001 C CNN
	1    1650 6550
	1    0    0    -1  
$EndComp
$Comp
L Connector:Conn_01x08_Male J10
U 1 1 6175A7C7
P 1100 2300
F 0 "J10" H 1208 2689 50  0000 C CNN
F 1 "Conn_01x08_Male" H 1208 2690 50  0001 C CNN
F 2 "Connector_JST:JST_EH_B8B-EH-A_1x08_P2.50mm_Vertical" H 1100 2300 50  0001 C CNN
F 3 "~" H 1100 2300 50  0001 C CNN
	1    1100 2300
	1    0    0    -1  
$EndComp
Wire Wire Line
	2100 6450 2100 6250
Wire Wire Line
	2100 6250 1850 6250
Wire Wire Line
	2100 6450 2500 6450
Wire Wire Line
	2250 6650 2050 6650
Wire Wire Line
	2050 6650 2050 6950
Wire Wire Line
	2050 6950 1850 6950
NoConn ~ 1850 6350
NoConn ~ 1850 6450
NoConn ~ 1850 6550
NoConn ~ 1850 6650
NoConn ~ 1850 6750
NoConn ~ 1850 6850
Wire Wire Line
	2800 1800 2800 2000
Wire Wire Line
	2800 2000 1300 2000
Wire Wire Line
	2650 3100 2650 2700
Wire Wire Line
	2650 2700 1300 2700
Wire Wire Line
	2650 3100 3000 3100
NoConn ~ 1300 2100
NoConn ~ 1300 2200
NoConn ~ 1300 2400
NoConn ~ 1300 2300
$Comp
L Device:Buzzer BZ2
U 1 1 61E48075
P 25650 7200
F 0 "BZ2" H 25802 7229 50  0000 L CNN
F 1 "Buzzer" H 25802 7138 50  0000 L CNN
F 2 "Buzzer_Beeper:Buzzer_12x9.5RM7.6" V 25625 7300 50  0001 C CNN
F 3 "~" V 25625 7300 50  0001 C CNN
	1    25650 7200
	1    0    0    -1  
$EndComp
Wire Wire Line
	27400 7100 29350 7100
Wire Wire Line
	25550 7100 25550 6750
Wire Wire Line
	25550 6750 24800 6750
Wire Wire Line
	24800 6750 24800 7100
Connection ~ 24800 7100
Wire Wire Line
	24800 7100 25050 7100
Wire Wire Line
	25350 7300 25350 7200
Wire Wire Line
	25350 7200 25050 7200
Wire Wire Line
	25350 7300 25500 7300
Connection ~ 25050 7200
Wire Wire Line
	5150 8600 5150 8500
Wire Wire Line
	6050 7650 6050 7950
$Comp
L power:GND #PWR0107
U 1 1 60448D35
P 6050 7950
F 0 "#PWR0107" H 6050 7700 50  0001 C CNN
F 1 "GND" H 6055 7777 50  0000 C CNN
F 2 "" H 6050 7950 50  0001 C CNN
F 3 "" H 6050 7950 50  0001 C CNN
	1    6050 7950
	1    0    0    -1  
$EndComp
$Comp
L power:GND #PWR0102
U 1 1 6063080C
P 5150 8600
F 0 "#PWR0102" H 5150 8350 50  0001 C CNN
F 1 "GND" H 5155 8427 50  0000 C CNN
F 2 "" H 5150 8600 50  0001 C CNN
F 3 "" H 5150 8600 50  0001 C CNN
	1    5150 8600
	1    0    0    -1  
$EndComp
Text Label 7550 6250 2    50   ~ 0
SDA
Text Label 7550 6500 2    50   ~ 0
SCL
Text Label 7550 5950 2    50   ~ 0
P0.03_AIN1
Wire Wire Line
	6150 5950 7550 5950
$Comp
L power:GND #PWR0103
U 1 1 6074BD5C
P 3050 6500
F 0 "#PWR0103" H 3050 6250 50  0001 C CNN
F 1 "GND" H 3055 6327 50  0000 C CNN
F 2 "" H 3050 6500 50  0001 C CNN
F 3 "" H 3050 6500 50  0001 C CNN
	1    3050 6500
	1    0    0    -1  
$EndComp
Text Label 2550 2000 0    50   ~ 0
12V_EXT
Text Notes 20750 8400 0    50   ~ 0
ALRT1\n
Wire Wire Line
	24300 7750 24500 7750
Text Notes 4400 5050 0    50   ~ 0
Bridged default
Text Notes 4400 5500 0    50   ~ 0
NC
Text Notes 1400 3500 0    100  ~ 0
Input range: 7-40V
Text Label 17300 14350 2    50   ~ 0
SWDIO
Wire Wire Line
	16550 14350 17300 14350
Text Label 17300 14450 2    50   ~ 0
SWCLK
Wire Wire Line
	16550 14450 17300 14450
Text Label 2050 2600 2    50   ~ 0
SWDIO
Wire Wire Line
	1300 2600 2050 2600
Wire Wire Line
	1300 2500 2050 2500
Text Label 2050 2500 2    50   ~ 0
SWCLK
$Comp
L Connector:TestPoint TP3
U 1 1 60FFE134
P 5400 5750
F 0 "TP3" H 5458 5868 50  0000 L CNN
F 1 "TestPoint" H 5458 5777 50  0000 L CNN
F 2 "TestPoint:TestPoint_Pad_D2.0mm" H 5600 5750 50  0001 C CNN
F 3 "~" H 5600 5750 50  0001 C CNN
	1    5400 5750
	1    0    0    -1  
$EndComp
Wire Wire Line
	5400 5750 5400 5950
Connection ~ 5400 5950
$Comp
L Connector:TestPoint TP13
U 1 1 610E848B
P 8700 5850
F 0 "TP13" H 8758 5968 50  0000 L CNN
F 1 "TestPoint" H 8758 5877 50  0001 L CNN
F 2 "TestPoint:TestPoint_Pad_D1.0mm" H 8900 5850 50  0001 C CNN
F 3 "~" H 8900 5850 50  0001 C CNN
	1    8700 5850
	1    0    0    -1  
$EndComp
Wire Wire Line
	9000 5850 8700 5850
$Comp
L Connector:TestPoint TP15
U 1 1 6113567D
P 25500 7500
F 0 "TP15" H 25558 7618 50  0000 L CNN
F 1 "TestPoint" H 25558 7527 50  0001 L CNN
F 2 "TestPoint:TestPoint_Pad_D1.0mm" H 25700 7500 50  0001 C CNN
F 3 "~" H 25700 7500 50  0001 C CNN
	1    25500 7500
	-1   0    0    1   
$EndComp
Wire Wire Line
	25500 7500 25500 7300
Connection ~ 25500 7300
Wire Wire Line
	25500 7300 25550 7300
$Comp
L Connector:TestPoint TP14
U 1 1 611861F6
P 9400 5150
F 0 "TP14" H 9458 5268 50  0000 L CNN
F 1 "TestPoint" H 9458 5177 50  0001 L CNN
F 2 "TestPoint:TestPoint_Pad_D1.0mm" H 9600 5150 50  0001 C CNN
F 3 "~" H 9600 5150 50  0001 C CNN
	1    9400 5150
	1    0    0    -1  
$EndComp
Wire Wire Line
	9400 5150 9400 5350
Connection ~ 9400 5350
Wire Wire Line
	9400 5350 9200 5350
$Comp
L power:GND #PWR0104
U 1 1 612C91AF
P 12900 3150
F 0 "#PWR0104" H 12900 2900 50  0001 C CNN
F 1 "GND" H 12905 2977 50  0000 C CNN
F 2 "" H 12900 3150 50  0001 C CNN
F 3 "" H 12900 3150 50  0001 C CNN
	1    12900 3150
	1    0    0    -1  
$EndComp
Wire Wire Line
	12900 1650 12900 1900
Connection ~ 12900 1900
Wire Wire Line
	12900 1900 12900 2150
Connection ~ 12900 2150
Wire Wire Line
	12900 2150 12900 2400
Connection ~ 12900 2400
Wire Wire Line
	12900 2400 12900 2650
Connection ~ 12900 2650
Wire Wire Line
	12900 2650 12900 2900
Connection ~ 12900 2900
Wire Wire Line
	12900 2900 12900 3150
Wire Wire Line
	3700 10000 5000 10000
Wire Wire Line
	2800 1800 3000 1800
$Comp
L Connector:TestPoint TP2
U 1 1 6145386D
P 2000 16350
F 0 "TP2" H 2058 16468 50  0000 L CNN
F 1 "TestPoint" H 2058 16377 50  0001 L CNN
F 2 "TestPoint:TestPoint_Pad_D1.0mm" H 2200 16350 50  0001 C CNN
F 3 "~" H 2200 16350 50  0001 C CNN
	1    2000 16350
	1    0    0    -1  
$EndComp
Wire Wire Line
	2000 16350 2000 16500
Connection ~ 2000 16500
Wire Wire Line
	2000 16500 2250 16500
$EndSCHEMATC
